StartFontMetrics 2.0
FontName TimesNewRoman-Medium
UnderlineThickness 20
ItalicAngle 0
Ascent 800
FamilyName TimesNewRoman
UnderlinePosition -133
IsFixedPitch false
Descent 200
Em 1000
Notice This font is created by Peter Soos. The font encoding is Latin-2 (ISO-8859.2).
Version 001.000
FullName TimesNewRoman-Medium
Weight Medium
FontBBox -70 -204 846 800
StartCharMetrics 198
C 32 ; WX 226 ; N space ; B 226 0 226 0 ;
C 33 ; WX 301 ; N exclam ; B 100 -13 201 612 ;
C 34 ; WX 369 ; N quotedbl ; B 59 354 309 612 ;
C 35 ; WX 452 ; N numbersign ; B 16 -13 435 612 ;
C 36 ; WX 452 ; N dollar ; B 48 -69 407 649 ;
C 37 ; WX 752 ; N percent ; B 32 -24 721 612 ;
C 38 ; WX 703 ; N ampersand ; B 33 -14 676 612 ;
C 39 ; WX 163 ; N quoteright ; B 36 354 125 612 ;
C 40 ; WX 301 ; N parenleft ; B 37 -193 281 627 ;
C 41 ; WX 301 ; N parenright ; B 20 -193 264 627 ;
C 42 ; WX 452 ; N asterisk ; B 64 261 388 627 ;
C 43 ; WX 509 ; N plus ; B 16 62 491 537 ;
C 44 ; WX 226 ; N comma ; B 49 -151 180 89 ;
C 45 ; WX 301 ; N hyphen ; B 37 170 265 236 ;
C 46 ; WX 226 ; N period ; B 64 -13 162 86 ;
C 47 ; WX 251 ; N slash ; B 1 -13 253 627 ;
C 48 ; WX 452 ; N zero ; B 33 -11 419 611 ;
C 49 ; WX 452 ; N one ; B 106 0 341 611 ;
C 50 ; WX 452 ; N two ; B 19 0 414 611 ;
C 51 ; WX 452 ; N three ; B 37 -11 377 611 ;
C 52 ; WX 452 ; N four ; B 14 0 420 611 ;
C 53 ; WX 452 ; N five ; B 43 -11 392 598 ;
C 54 ; WX 452 ; N six ; B 39 -11 416 611 ;
C 55 ; WX 452 ; N seven ; B 33 -13 412 598 ;
C 56 ; WX 452 ; N eight ; B 55 -11 399 611 ;
C 57 ; WX 452 ; N nine ; B 36 -13 413 611 ;
C 58 ; WX 251 ; N colon ; B 78 -13 176 416 ;
C 59 ; WX 251 ; N semicolon ; B 62 -151 194 416 ;
C 60 ; WX 509 ; N less ; B 17 82 491 517 ;
C 61 ; WX 509 ; N equal ; B 16 210 492 389 ;
C 62 ; WX 509 ; N greater ; B 16 82 491 517 ;
C 63 ; WX 401 ; N question ; B 41 -12 365 612 ;
C 64 ; WX 832 ; N at ; B 42 -195 809 627 ;
C 65 ; WX 652 ; N A ; B 7 0 642 612 ;
C 66 ; WX 603 ; N B ; B 15 0 553 598 ;
C 67 ; WX 603 ; N C ; B 33 -14 571 612 ;
C 68 ; WX 652 ; N D ; B 15 0 618 598 ;
C 69 ; WX 552 ; N E ; B 19 0 531 598 ;
C 70 ; WX 502 ; N F ; B 14 0 465 598 ;
C 71 ; WX 652 ; N G ; B 32 -14 640 612 ;
C 72 ; WX 652 ; N H ; B 15 0 634 598 ;
C 73 ; WX 301 ; N I ; B 23 0 279 598 ;
C 74 ; WX 351 ; N J ; B 19 -14 346 598 ;
C 75 ; WX 652 ; N K ; B 15 0 659 598 ;
C 76 ; WX 552 ; N L ; B 18 0 532 598 ;
C 77 ; WX 803 ; N M ; B 15 0 784 598 ;
C 78 ; WX 652 ; N N ; B -12 -10 640 598 ;
C 79 ; WX 652 ; N O ; B 32 -14 618 612 ;
C 80 ; WX 502 ; N P ; B 15 0 471 598 ;
C 81 ; WX 652 ; N Q ; B 32 -177 618 612 ;
C 82 ; WX 603 ; N R ; B 15 0 611 598 ;
C 83 ; WX 502 ; N S ; B 57 -14 453 612 ;
C 84 ; WX 552 ; N T ; B 27 0 529 598 ;
C 85 ; WX 652 ; N U ; B 5 -14 642 598 ;
C 86 ; WX 652 ; N V ; B 8 -14 641 598 ;
C 87 ; WX 853 ; N W ; B 12 -14 846 598 ;
C 88 ; WX 652 ; N X ; B 6 0 641 598 ;
C 89 ; WX 652 ; N Y ; B 8 0 640 598 ;
C 90 ; WX 552 ; N Z ; B 12 0 527 598 ;
C 91 ; WX 301 ; N bracketleft ; B 74 -179 268 612 ;
C 92 ; WX 251 ; N backslash ; B 1 -13 253 627 ;
C 93 ; WX 301 ; N bracketright ; B 33 -180 227 612 ;
C 94 ; WX 424 ; N asciicircum ; B 16 294 407 611 ;
C 95 ; WX 452 ; N underscore ; B -7 -195 460 -158 ;
C 96 ; WX 301 ; N quoteleft ; B 52 461 197 613 ;
C 97 ; WX 401 ; N a ; B 33 -8 399 416 ;
C 98 ; WX 452 ; N b ; B -2 -13 420 627 ;
C 99 ; WX 401 ; N c ; B 31 -13 371 416 ;
C 100 ; WX 452 ; N d ; B 30 -13 453 627 ;
C 101 ; WX 401 ; N e ; B 33 -13 376 416 ;
C 102 ; WX 301 ; N f ; B 35 0 393 626 ;
C 103 ; WX 452 ; N g ; B 27 -195 435 416 ;
C 104 ; WX 452 ; N h ; B 5 0 446 627 ;
C 105 ; WX 251 ; N i ; B 26 0 229 627 ;
C 106 ; WX 251 ; N j ; B -70 -195 176 628 ;
C 107 ; WX 452 ; N k ; B 7 0 457 627 ;
C 108 ; WX 251 ; N l ; B 27 0 232 627 ;
C 109 ; WX 703 ; N m ; B 8 0 699 416 ;
C 110 ; WX 452 ; N n ; B 5 0 448 416 ;
C 111 ; WX 452 ; N o ; B 31 -13 420 416 ;
C 112 ; WX 452 ; N p ; B -3 -193 421 416 ;
C 113 ; WX 452 ; N q ; B 30 -193 452 416 ;
C 114 ; WX 301 ; N r ; B 5 0 306 416 ;
C 115 ; WX 351 ; N s ; B 44 -13 320 416 ;
C 116 ; WX 251 ; N t ; B 9 -6 252 537 ;
C 117 ; WX 452 ; N u ; B 1 -13 451 404 ;
C 118 ; WX 452 ; N v ; B 7 -13 444 404 ;
C 119 ; WX 652 ; N w ; B 5 -13 644 404 ;
C 120 ; WX 452 ; N x ; B 12 0 441 404 ;
C 121 ; WX 452 ; N y ; B 5 -195 446 404 ;
C 122 ; WX 401 ; N z ; B 18 0 387 404 ;
C 123 ; WX 434 ; N braceleft ; B 125 -195 371 627 ;
C 124 ; WX 181 ; N bar ; B 71 -195 107 627 ;
C 125 ; WX 434 ; N braceright ; B 78 -195 324 627 ;
C 126 ; WX 489 ; N asciitilde ; B 19 175 490 299 ;
C 129 ; WX 544 ; N quotedblbase ; B 30 -156 401 87 ;
C 130 ; WX 1000 ; N ellipsis ; B 112 -11 889 100 ;
C 133 ; WX 444 ; N quotedblleft ; B 43 433 414 676 ;
C 134 ; WX 444 ; N quotedblright ; B 30 433 401 676 ;
C 137 ; WX 500 ; N endash ; B 0 201 500 250 ;
C 138 ; WX 1000 ; N emdash ; B 0 201 1000 250 ;
C 139 ; WX 350 ; N bullet ; B 40 196 310 466 ;
C 160 ; WX 226 ; N nbspace ; B 226 0 226 0 ;
C 161 ; WX 652 ; N Aogonek ; B 7 -160 656 612 ;
C 162 ; WX 301 ; N breve ; B 24 475 276 599 ;
C 163 ; WX 552 ; N Lstroke ; B 10 0 528 598 ;
C 164 ; WX 452 ; N currency ; B 12 88 439 512 ;
C 165 ; WX 552 ; N Lcaron ; B 18 0 532 612 ;
C 166 ; WX 502 ; N Sacute ; B 57 -14 453 792 ;
C 167 ; WX 452 ; N section ; B 69 -176 383 611 ;
C 168 ; WX 301 ; N dieresis ; B 25 494 276 590 ;
C 169 ; WX 502 ; N Scaron ; B 56 -14 453 790 ;
C 170 ; WX 502 ; N Scedilla ; B 57 -172 453 612 ;
C 171 ; WX 552 ; N Tcaron ; B 27 0 529 790 ;
C 172 ; WX 552 ; N Zacute ; B 12 0 527 792 ;
C 173 ; WX 301 ; N softhyphen ; B 37 170 265 236 ;
C 174 ; WX 552 ; N Zcaron ; B 12 0 527 790 ;
C 175 ; WX 552 ; N Zabovedot ; B 12 0 527 753 ;
C 176 ; WX 361 ; N degree ; B 43 340 314 612 ;
C 177 ; WX 401 ; N aogonek ; B 33 -160 455 416 ;
C 178 ; WX 301 ; N ogonek ; B 65 -160 268 7 ;
C 179 ; WX 251 ; N lstroke ; B 14 0 243 627 ;
C 180 ; WX 301 ; N acute ; B 104 461 249 613 ;
C 181 ; WX 367 ; N lcaron ; B 26 0 359 627 ;
C 182 ; WX 351 ; N sacute ; B 44 -13 320 613 ;
C 183 ; WX 301 ; N caron ; B 26 465 275 611 ;
C 184 ; WX 301 ; N cedilla ; B 82 -172 219 7 ;
C 185 ; WX 351 ; N scaron ; B 44 -13 320 611 ;
C 186 ; WX 351 ; N scedilla ; B 44 -172 320 416 ;
C 187 ; WX 386 ; N tcaron ; B 8 -6 378 627 ;
C 188 ; WX 401 ; N zacute ; B 18 0 387 613 ;
C 189 ; WX 301 ; N doubleacute ; B 34 461 284 613 ;
C 190 ; WX 401 ; N zcaron ; B 18 0 387 611 ;
C 191 ; WX 401 ; N zabovedot ; B 18 0 387 590 ;
C 192 ; WX 603 ; N Racute ; B 15 0 611 792 ;
C 193 ; WX 652 ; N Aacute ; B 7 0 642 792 ;
C 194 ; WX 652 ; N Acircumflex ; B 7 0 642 790 ;
C 195 ; WX 652 ; N Abreve ; B 12 0 647 776 ;
C 196 ; WX 652 ; N Adieresis ; B 7 0 642 753 ;
C 197 ; WX 552 ; N Lacute ; B 18 0 532 792 ;
C 198 ; WX 603 ; N Cacute ; B 33 -14 571 792 ;
C 199 ; WX 603 ; N Ccedilla ; B 33 -172 571 612 ;
C 200 ; WX 603 ; N Ccaron ; B 33 -14 571 790 ;
C 201 ; WX 552 ; N Eacute ; B 19 0 531 792 ;
C 202 ; WX 552 ; N Eogonek ; B 19 -160 531 598 ;
C 203 ; WX 552 ; N Edieresis ; B 19 0 531 753 ;
C 204 ; WX 552 ; N Ecaron ; B 19 0 531 790 ;
C 205 ; WX 301 ; N Iacute ; B 23 0 279 792 ;
C 206 ; WX 301 ; N Icircumflex ; B 23 0 279 790 ;
C 207 ; WX 652 ; N Dcaron ; B 15 0 618 790 ;
C 208 ; WX 652 ; N Dstroke ; B 15 0 618 598 ;
C 209 ; WX 652 ; N Nacute ; B -12 -10 640 792 ;
C 210 ; WX 652 ; N Ncaron ; B -12 -10 640 790 ;
C 211 ; WX 652 ; N Oacute ; B 32 -14 618 792 ;
C 212 ; WX 652 ; N Ocircumflex ; B 32 -14 618 790 ;
C 213 ; WX 652 ; N Odoubleacute ; B 32 -14 618 792 ;
C 214 ; WX 652 ; N Odieresis ; B 32 -14 618 753 ;
C 215 ; WX 509 ; N multiply ; B 73 119 435 481 ;
C 216 ; WX 603 ; N Rcaron ; B 15 0 611 790 ;
C 217 ; WX 652 ; N Uring ; B 5 -14 642 800 ;
C 218 ; WX 652 ; N Uacute ; B 5 -14 642 792 ;
C 219 ; WX 652 ; N Udoubleacute ; B 5 -14 642 792 ;
C 220 ; WX 652 ; N Udieresis ; B 5 -14 642 753 ;
C 221 ; WX 652 ; N Yacute ; B 8 0 640 792 ;
C 222 ; WX 552 ; N Tcedilla ; B 27 -204 529 598 ;
C 223 ; WX 452 ; N ssharp ; B 15 -5 423 627 ;
C 224 ; WX 301 ; N racute ; B 5 0 306 613 ;
C 225 ; WX 401 ; N aacute ; B 33 -8 399 613 ;
C 226 ; WX 401 ; N acircumflex ; B 33 -8 399 611 ;
C 227 ; WX 401 ; N abreve ; B 31 -8 397 599 ;
C 228 ; WX 401 ; N adieresis ; B 33 -8 399 590 ;
C 229 ; WX 251 ; N lacute ; B 27 0 232 792 ;
C 230 ; WX 401 ; N cacute ; B 31 -13 371 613 ;
C 231 ; WX 401 ; N ccedilla ; B 31 -172 371 416 ;
C 232 ; WX 401 ; N ccaron ; B 31 -13 371 611 ;
C 233 ; WX 401 ; N eacute ; B 33 -13 376 613 ;
C 234 ; WX 401 ; N eogonek ; B 33 -160 418 416 ;
C 235 ; WX 401 ; N edieresis ; B 33 -13 376 589 ;
C 236 ; WX 401 ; N ecaron ; B 33 -13 376 611 ;
C 237 ; WX 251 ; N iacute ; B 26 0 229 613 ;
C 238 ; WX 251 ; N icircumflex ; B 5 0 254 611 ;
C 239 ; WX 584 ; N dcaron ; B 30 -13 576 627 ;
C 240 ; WX 452 ; N dstroke ; B 17 -13 441 627 ;
C 241 ; WX 452 ; N nacute ; B 5 0 448 613 ;
C 242 ; WX 452 ; N ncaron ; B 5 0 448 611 ;
C 243 ; WX 452 ; N oacute ; B 31 -13 420 613 ;
C 244 ; WX 452 ; N ocircumflex ; B 31 -13 420 611 ;
C 245 ; WX 452 ; N odoubleacute ; B 31 -13 420 613 ;
C 246 ; WX 452 ; N odieresis ; B 31 -13 420 589 ;
C 247 ; WX 496 ; N division ; B 10 123 486 474 ;
C 248 ; WX 301 ; N rcaron ; B 5 0 306 611 ;
C 249 ; WX 452 ; N uring ; B 1 -13 451 628 ;
C 250 ; WX 452 ; N uacute ; B 1 -13 451 613 ;
C 251 ; WX 452 ; N udoubleacute ; B 1 -13 451 613 ;
C 252 ; WX 452 ; N udieresis ; B 1 -13 451 589 ;
C 253 ; WX 452 ; N yacute ; B 5 -195 446 613 ;
C 254 ; WX 251 ; N tcedilla ; B 9 -204 252 537 ;
C 255 ; WX 301 ; N abovedot ; B 219 264 311 357 ;
EndCharMetrics
StartKernData
StartKernPairs 1784

KPX A C -51
KPX A Ccedilla -57
KPX A G -57
KPX A O -60
KPX A Odieresis -60
KPX A Q -60
KPX A T -54
KPX A U -62
KPX A Uacute -62
KPX A Ucircumflex -62
KPX A Udieresis -62
KPX A Ugrave -62
KPX A V -131
KPX A W -113
KPX A Y -81
KPX A b -20
KPX A c -29
KPX A ccedilla -29
KPX A d -28
KPX A e -27
KPX A g -20
KPX A guillemotleft -64
KPX A guilsinglleft -74
KPX A hyphen -23
KPX A o -40
KPX A period -10
KPX A q -21
KPX A quotedblright -91
KPX A quoteright -116
KPX A t -20
KPX A u -28
KPX A v -81
KPX A w -73
KPX A y -83
KPX A Ccaron -51
KPX A ccaron -29
KPX A dcaron -28
KPX A ecaron -27
KPX A eacute -27
KPX A Ocircumflex -60
KPX A Oacute -60
KPX A ocircumflex -40
KPX A odieresis -40
KPX A oacute -40
KPX A Tcaron -54
KPX A tcaron -20
KPX A Uring -62
KPX A udieresis -28
KPX A uring -28
KPX A uacute -28
KPX A Yacute -81
KPX A yacute -83

KPX Aacute C -51
KPX Aacute G -57
KPX Aacute O -60
KPX Aacute Q -60
KPX Aacute T -54
KPX Aacute U -62
KPX Aacute V -131
KPX Aacute W -113
KPX Aacute Y -81
KPX Aacute b -20
KPX Aacute c -29
KPX Aacute d -28
KPX Aacute e -27
KPX Aacute g -20
KPX Aacute guillemotleft -64
KPX Aacute guilsinglleft -74
KPX Aacute hyphen -23
KPX Aacute o -40
KPX Aacute period -10
KPX Aacute q -21
KPX Aacute quoteright -116
KPX Aacute t -20
KPX Aacute u -28
KPX Aacute v -81
KPX Aacute w -73
KPX Aacute y -83
KPX Aacute Ccedilla -57
KPX Aacute Odieresis -60
KPX Aacute Uacute -62
KPX Aacute Ucircumflex -62
KPX Aacute Udieresis -62
KPX Aacute Ugrave -62
KPX Aacute ccedilla -29
KPX Aacute quotedblright -91
KPX Aacute Ccaron -51
KPX Aacute ccaron -29
KPX Aacute dcaron -28
KPX Aacute ecaron -27
KPX Aacute eacute -27
KPX Aacute Ocircumflex -60
KPX Aacute Oacute -60
KPX Aacute ocircumflex -40
KPX Aacute odieresis -40
KPX Aacute oacute -40
KPX Aacute Tcaron -54
KPX Aacute tcaron -20
KPX Aacute Uring -62
KPX Aacute udieresis -28
KPX Aacute uring -28
KPX Aacute uacute -28
KPX Aacute Yacute -81
KPX Aacute yacute -83

KPX Acircumflex C -51
KPX Acircumflex G -57
KPX Acircumflex O -60
KPX Acircumflex Q -60
KPX Acircumflex T -54
KPX Acircumflex U -62
KPX Acircumflex V -131
KPX Acircumflex W -113
KPX Acircumflex Y -81
KPX Acircumflex period -10
KPX Acircumflex Ccaron -51
KPX Acircumflex Ocircumflex -60
KPX Acircumflex Odieresis -60
KPX Acircumflex Oacute -60
KPX Acircumflex Tcaron -54
KPX Acircumflex Udieresis -62
KPX Acircumflex Uring -62
KPX Acircumflex Uacute -62
KPX Acircumflex Yacute -81

KPX Adieresis C -51
KPX Adieresis G -57
KPX Adieresis O -60
KPX Adieresis Q -60
KPX Adieresis T -54
KPX Adieresis U -62
KPX Adieresis V -131
KPX Adieresis W -113
KPX Adieresis Y -81
KPX Adieresis b -20
KPX Adieresis c -29
KPX Adieresis d -28
KPX Adieresis g -20
KPX Adieresis guillemotleft -64
KPX Adieresis guilsinglleft -74
KPX Adieresis hyphen -23
KPX Adieresis o -40
KPX Adieresis period -10
KPX Adieresis q -21
KPX Adieresis quotedblright -91
KPX Adieresis quoteright -116
KPX Adieresis t -20
KPX Adieresis u -28
KPX Adieresis v -81
KPX Adieresis w -73
KPX Adieresis y -83
KPX Adieresis Ccedilla -57
KPX Adieresis Odieresis -60
KPX Adieresis Uacute -62
KPX Adieresis Ucircumflex -62
KPX Adieresis Udieresis -62
KPX Adieresis Ugrave -62
KPX Adieresis ccedilla -29
KPX Adieresis e -27
KPX Adieresis Ccaron -51
KPX Adieresis ccaron -29
KPX Adieresis dcaron -28
KPX Adieresis ecaron -27
KPX Adieresis eacute -27
KPX Adieresis Ocircumflex -60
KPX Adieresis Oacute -60
KPX Adieresis ocircumflex -40
KPX Adieresis odieresis -40
KPX Adieresis oacute -40
KPX Adieresis Tcaron -54
KPX Adieresis tcaron -20
KPX Adieresis Uring -62
KPX Adieresis udieresis -28
KPX Adieresis uring -28
KPX Adieresis uacute -28
KPX Adieresis Yacute -81
KPX Adieresis yacute -83

KPX Agrave C -51
KPX Agrave G -57
KPX Agrave O -60
KPX Agrave Q -60
KPX Agrave T -54
KPX Agrave U -62
KPX Agrave V -131
KPX Agrave W -113
KPX Agrave Y -81
KPX Agrave period -10
KPX Agrave Ccaron -51
KPX Agrave Ocircumflex -60
KPX Agrave Odieresis -60
KPX Agrave Oacute -60
KPX Agrave Tcaron -54
KPX Agrave Udieresis -62
KPX Agrave Uring -62
KPX Agrave Uacute -62
KPX Agrave Yacute -81

KPX Aring C -51
KPX Aring G -57
KPX Aring O -60
KPX Aring Q -60
KPX Aring T -54
KPX Aring U -62
KPX Aring V -131
KPX Aring W -113
KPX Aring Y -81
KPX Aring b -20
KPX Aring c -29
KPX Aring d -28
KPX Aring e -27
KPX Aring g -20
KPX Aring guillemotleft -64
KPX Aring guilsinglleft -74
KPX Aring hyphen -23
KPX Aring o -40
KPX Aring period -10
KPX Aring q -21
KPX Aring quotedblright -91
KPX Aring quoteright -116
KPX Aring t -20
KPX Aring u -28
KPX Aring v -81
KPX Aring w -73
KPX Aring y -83
KPX Aring Ccaron -51
KPX Aring ccaron -29
KPX Aring dcaron -28
KPX Aring ecaron -27
KPX Aring eacute -27
KPX Aring Ocircumflex -60
KPX Aring Odieresis -60
KPX Aring Oacute -60
KPX Aring ocircumflex -40
KPX Aring odieresis -40
KPX Aring oacute -40
KPX Aring Tcaron -54
KPX Aring tcaron -20
KPX Aring Udieresis -62
KPX Aring Uring -62
KPX Aring Uacute -62
KPX Aring udieresis -28
KPX Aring uring -28
KPX Aring uacute -28
KPX Aring Yacute -81
KPX Aring yacute -83

KPX Atilde C -51
KPX Atilde G -57
KPX Atilde O -60
KPX Atilde Q -60
KPX Atilde T -54
KPX Atilde U -62
KPX Atilde V -131
KPX Atilde W -113
KPX Atilde Y -81
KPX Atilde period -10
KPX Atilde Ccaron -51
KPX Atilde Ocircumflex -60
KPX Atilde Odieresis -60
KPX Atilde Oacute -60
KPX Atilde Tcaron -54
KPX Atilde Udieresis -62
KPX Atilde Uring -62
KPX Atilde Uacute -62
KPX Atilde Yacute -81

KPX B A -51
KPX B AE -44
KPX B Aacute -51
KPX B Acircumflex -51
KPX B Adieresis -51
KPX B Aring -51
KPX B Atilde -51
KPX B O -24
KPX B OE -18
KPX B Oacute -24
KPX B Ocircumflex -24
KPX B Odieresis -24
KPX B Ograve -24
KPX B Oslash -23
KPX B V -65
KPX B W -59
KPX B Y -68
KPX B Yacute -68

KPX C A -23
KPX C AE -15
KPX C Aacute -23
KPX C Adieresis -23
KPX C Aring -23
KPX C K -10
KPX C O -12
KPX C Oacute -12
KPX C Odieresis -12
KPX C Ocircumflex -12

KPX Ccedilla A -27
KPX Ccedilla Aacute -27
KPX Ccedilla Adieresis -27

KPX D A -67
KPX D Aacute -67
KPX D Acircumflex -67
KPX D Adieresis -67
KPX D Agrave -67
KPX D Aring -67
KPX D Atilde -67
KPX D J -41
KPX D T -10
KPX D V -71
KPX D W -57
KPX D X -64
KPX D Y -74
KPX D Tcaron -10
KPX D Yacute -74

KPX F A -71
KPX F Aacute -71
KPX F Acircumflex -71
KPX F Adieresis -71
KPX F Agrave -71
KPX F Aring -71
KPX F Atilde -71
KPX F J -13
KPX F O -10
KPX F Odieresis -10
KPX F a -34
KPX F aacute -34
KPX F adieresis -10
KPX F ae -36
KPX F aring -34
KPX F comma -51
KPX F e -19
KPX F eacute -19
KPX F i -13
KPX F j -20
KPX F o -21
KPX F oacute -21
KPX F odieresis -21
KPX F oe -21
KPX F oslash -21
KPX F period -58
KPX F r -10
KPX F u -11
KPX F ecaron -19
KPX F iacute -13
KPX F Ocircumflex -10
KPX F Oacute -10
KPX F ocircumflex -21
KPX F racute -10
KPX F udieresis -11
KPX F uacute -11

KPX G A -26
KPX G AE -19
KPX G Aacute -26
KPX G Acircumflex -26
KPX G Adieresis -26
KPX G Agrave -26
KPX G Aring -26
KPX G Atilde -26
KPX G T -21
KPX G V -23
KPX G W -18
KPX G Y -26
KPX G Tcaron -21
KPX G Yacute -26

KPX J A -53
KPX J AE -46
KPX J Adieresis -53
KPX J Aring -53
KPX J Aacute -53

KPX K C -43
KPX K G -49
KPX K O -51
KPX K OE -44
KPX K Oacute -51
KPX K Odieresis -51
KPX K e -19
KPX K hyphen -63
KPX K o -31
KPX K oacute -31
KPX K odieresis -31
KPX K u -19
KPX K udieresis -19
KPX K y -86
KPX K Ccaron -43
KPX K ecaron -19
KPX K eacute -19
KPX K Ocircumflex -51
KPX K ocircumflex -31
KPX K uring -19
KPX K uacute -19
KPX K yacute -86

KPX L T -73
KPX L U -26
KPX L Udieresis -26
KPX L V -115
KPX L W -89
KPX L Y -100
KPX L hyphen 25
KPX L quotedblright -100
KPX L quoteright -125
KPX L u -10
KPX L udieresis -10
KPX L y -56
KPX L Tcaron -73
KPX L Uring -26
KPX L Uacute -26
KPX L uring -10
KPX L uacute -10
KPX L Yacute -100
KPX L yacute -56

KPX N A -28
KPX N AE -21
KPX N Aacute -28
KPX N Adieresis -28
KPX N Aring -28
KPX N C -16
KPX N Ccedilla -16
KPX N G -19
KPX N O -20
KPX N Oacute -20
KPX N Odieresis -20
KPX N a -27
KPX N aacute -27
KPX N adieresis -27
KPX N ae -27
KPX N aring -27
KPX N comma -14
KPX N e -17
KPX N eacute -17
KPX N o -21
KPX N oacute -21
KPX N odieresis -21
KPX N oslash -20
KPX N period -21
KPX N u -25
KPX N udieresis -25
KPX N Ccaron -16
KPX N ecaron -17
KPX N Ocircumflex -20
KPX N ocircumflex -21
KPX N uring -25
KPX N uacute -25

KPX O A -58
KPX O AE -50
KPX O Aacute -58
KPX O Adieresis -58
KPX O Aring -58
KPX O V -69
KPX O W -54
KPX O X -55
KPX O Y -72
KPX O Yacute -72

KPX Oacute A -58
KPX Oacute V -69
KPX Oacute W -54
KPX Oacute Y -72
KPX Oacute Aacute -58
KPX Oacute Adieresis -58
KPX Oacute AE -50
KPX Oacute Aring -58
KPX Oacute X -55
KPX Oacute Yacute -72

KPX Ocircumflex V -69
KPX Ocircumflex Y -72
KPX Ocircumflex A -58
KPX Ocircumflex AE -50
KPX Ocircumflex Aacute -58
KPX Ocircumflex Adieresis -58
KPX Ocircumflex Aring -58
KPX Ocircumflex W -54
KPX Ocircumflex X -55
KPX Ocircumflex Yacute -72

KPX Odieresis A -58
KPX Odieresis V -69
KPX Odieresis W -54
KPX Odieresis X -55
KPX Odieresis Y -72
KPX Odieresis Aacute -58
KPX Odieresis Adieresis -58
KPX Odieresis AE -50
KPX Odieresis Aring -58
KPX Odieresis Yacute -72

KPX Ograve V -69
KPX Ograve Y -72
KPX Ograve Yacute -72

KPX Oslash A -58
KPX Oslash Aacute -58
KPX Oslash Adieresis -58

KPX Otilde V -69
KPX Otilde Y -72
KPX Otilde Yacute -72

KPX P A -90
KPX P AE -91
KPX P Aacute -90
KPX P Adieresis -90
KPX P Aring -90
KPX P J -52
KPX P a -17
KPX P ae -18
KPX P aring -17
KPX P comma -94
KPX P e -23
KPX P hyphen -37
KPX P o -25
KPX P oacute -25
KPX P odieresis -25
KPX P oe -25
KPX P oslash -25
KPX P period -101
KPX P ocircumflex -25

KPX R C -41
KPX R Ccedilla -41
KPX R G -44
KPX R O -45
KPX R OE -39
KPX R Oacute -45
KPX R Odieresis -45
KPX R T -34
KPX R U -56
KPX R Udieresis -55
KPX R V -73
KPX R W -67
KPX R Y -76
KPX R e -23
KPX R eacute -23
KPX R hyphen -52
KPX R o -36
KPX R oacute -36
KPX R odieresis -36
KPX R oe -31
KPX R u -24
KPX R uacute -24
KPX R udieresis -24
KPX R y -37
KPX R Ccaron -41
KPX R ecaron -23
KPX R Ocircumflex -45
KPX R ocircumflex -36
KPX R Tcaron -34
KPX R Uring -56
KPX R Uacute -56
KPX R uring -24
KPX R Yacute -76
KPX R yacute -37

KPX S A -37
KPX S AE -30
KPX S Aacute -37
KPX S Adieresis -37
KPX S Aring -37
KPX S T -19
KPX S V -27
KPX S W -21
KPX S Y -30
KPX S t -20
KPX S Tcaron -19
KPX S tcaron -20
KPX S Yacute -30

KPX T A -53
KPX T AE -45
KPX T Aacute -53
KPX T Acircumflex -53
KPX T Adieresis -53
KPX T Agrave -53
KPX T Aring -53
KPX T Atilde -53
KPX T G -11
KPX T J -18
KPX T O -10
KPX T Oacute -10
KPX T Ocircumflex -10
KPX T Odieresis -10
KPX T Ograve -10
KPX T Oslash -10
KPX T Otilde -10
KPX T S -10
KPX T V 14
KPX T W 20
KPX T Y 11
KPX T a -77
KPX T ae -80
KPX T c -87
KPX T colon -87
KPX T comma -74
KPX T e -86
KPX T g -91
KPX T guillemotleft -114
KPX T guilsinglleft -125
KPX T hyphen -73
KPX T i -18
KPX T j -25
KPX T o -90
KPX T oslash -89
KPX T period -82
KPX T r -50
KPX T s -73
KPX T semicolon -87
KPX T u -93
KPX T v -105
KPX T w -106
KPX T y -102
KPX T ccaron -87
KPX T iacute -18
KPX T ocircumflex -90
KPX T odieresis -90
KPX T oacute -90
KPX T Scaron -10
KPX T udieresis -93
KPX T uacute -93
KPX T Yacute 11
KPX T yacute -102

KPX U A -65
KPX U AE -58
KPX U Aacute -65
KPX U Acircumflex -65
KPX U Adieresis -65
KPX U Aring -65
KPX U Atilde -65
KPX U comma -31
KPX U m -33
KPX U n -31
KPX U p -28
KPX U period -37
KPX U r -27
KPX U ncaron -31
KPX U rcaron -27
KPX U racute -27

KPX Uacute A -65
KPX Uacute comma -31
KPX Uacute m -33
KPX Uacute n -31
KPX Uacute p -28
KPX Uacute period -37
KPX Uacute r -27
KPX Uacute Aacute -65
KPX Uacute Adieresis -65
KPX Uacute ncaron -31
KPX Uacute rcaron -27
KPX Uacute racute -27
KPX Uacute AE -58
KPX Uacute Acircumflex -65
KPX Uacute Aring -65
KPX Uacute Atilde -65

KPX Ucircumflex A -65
KPX Ucircumflex Aacute -65
KPX Ucircumflex Adieresis -65

KPX Udieresis A -65
KPX Udieresis b 21
KPX Udieresis comma -31
KPX Udieresis m -33
KPX Udieresis n -31
KPX Udieresis p -28
KPX Udieresis period -37
KPX Udieresis r -27
KPX Udieresis Aacute -65
KPX Udieresis Adieresis -65
KPX Udieresis ncaron -31
KPX Udieresis rcaron -27
KPX Udieresis racute -27
KPX Udieresis AE -58
KPX Udieresis Acircumflex -65
KPX Udieresis Aring -65
KPX Udieresis Atilde -65

KPX Ugrave A -65
KPX Ugrave Aacute -65
KPX Ugrave Adieresis -65

KPX V A -124
KPX V AE -104
KPX V Aacute -124
KPX V Acircumflex -124
KPX V Adieresis -124
KPX V Agrave -124
KPX V Aring -124
KPX V Atilde -124
KPX V C -63
KPX V G -66
KPX V O -67
KPX V Oacute -67
KPX V Ocircumflex -67
KPX V Odieresis -67
KPX V Ograve -67
KPX V Oslash -65
KPX V Otilde -67
KPX V S -47
KPX V T 10
KPX V a -88
KPX V ae -89
KPX V colon -90
KPX V comma -105
KPX V e -85
KPX V g -101
KPX V guillemotleft -109
KPX V guilsinglleft -119
KPX V hyphen -69
KPX V i -20
KPX V o -89
KPX V oslash -88
KPX V period -112
KPX V r -56
KPX V semicolon -89
KPX V u -51
KPX V y -54
KPX V aacute -88
KPX V adieresis -88
KPX V Ccaron -63
KPX V eacute -85
KPX V iacute -20
KPX V ocircumflex -89
KPX V odieresis -89
KPX V oacute -89
KPX V racute -56
KPX V Scaron -47
KPX V Tcaron 10
KPX V udieresis -51
KPX V uacute -51
KPX V yacute -54

KPX W A -113
KPX W AE -98
KPX W Aacute -113
KPX W Acircumflex -113
KPX W Adieresis -113
KPX W Agrave -113
KPX W Aring -113
KPX W Atilde -113
KPX W C -53
KPX W G -56
KPX W O -56
KPX W Oacute -56
KPX W Ocircumflex -56
KPX W Odieresis -56
KPX W Ograve -56
KPX W Oslash -55
KPX W Otilde -56
KPX W S -41
KPX W T 17
KPX W a -80
KPX W ae -81
KPX W colon -81
KPX W comma -89
KPX W e -72
KPX W g -91
KPX W guillemotleft -97
KPX W guilsinglleft -107
KPX W hyphen -56
KPX W i -13
KPX W o -76
KPX W oslash -75
KPX W period -96
KPX W r -47
KPX W semicolon -81
KPX W u -43
KPX W y -45
KPX W aacute -80
KPX W adieresis -80
KPX W Ccaron -53
KPX W ecaron -72
KPX W eacute -72
KPX W iacute -13
KPX W ocircumflex -76
KPX W odieresis -76
KPX W oacute -76
KPX W rcaron -47
KPX W racute -47
KPX W Scaron -41
KPX W Tcaron 17
KPX W udieresis -43
KPX W uring -43
KPX W uacute -43
KPX W yacute -45

KPX X C -52
KPX X O -61
KPX X Odieresis -61
KPX X Q -61
KPX X e -28
KPX X hyphen -54
KPX X o -41
KPX X u -29
KPX X y -96
KPX X Ccaron -52
KPX X ecaron -28
KPX X eacute -28
KPX X Ocircumflex -61
KPX X Oacute -61
KPX X ocircumflex -41
KPX X odieresis -41
KPX X oacute -41
KPX X udieresis -29
KPX X uring -29
KPX X uacute -29
KPX X yacute -96

KPX Y A -74
KPX Y AE -67
KPX Y Aacute -74
KPX Y Acircumflex -74
KPX Y Adieresis -74
KPX Y Agrave -74
KPX Y Aring -74
KPX Y Atilde -74
KPX Y C -68
KPX Y G -71
KPX Y O -69
KPX Y Oacute -69
KPX Y Ocircumflex -69
KPX Y Odieresis -69
KPX Y Ograve -69
KPX Y Oslash -69
KPX Y Otilde -69
KPX Y S -44
KPX Y T 13
KPX Y a -99
KPX Y ae -102
KPX Y colon -109
KPX Y comma -96
KPX Y e -103
KPX Y g -113
KPX Y guillemotleft -135
KPX Y guilsinglleft -145
KPX Y hyphen -98
KPX Y i -17
KPX Y o -107
KPX Y oslash -106
KPX Y p -88
KPX Y period -103
KPX Y semicolon -108
KPX Y u -78
KPX Y v -86
KPX Y aacute -99
KPX Y adieresis -99
KPX Y Ccaron -68
KPX Y ecaron -103
KPX Y eacute -103
KPX Y iacute -17
KPX Y ocircumflex -107
KPX Y odieresis -107
KPX Y oacute -107
KPX Y Scaron -44
KPX Y Tcaron 13
KPX Y udieresis -78
KPX Y uring -78
KPX Y uacute -78

KPX Z v -48
KPX Z y -50
KPX Z yacute -50

KPX a j -26
KPX a quoteright -40
KPX a v -30
KPX a w -31
KPX a y -32
KPX a yacute -32

KPX aacute v -30
KPX aacute w -31
KPX aacute y -32
KPX aacute j -26
KPX aacute quoteright -40
KPX aacute yacute -32

KPX adieresis v -30
KPX adieresis w -31
KPX adieresis y -32
KPX adieresis j -26
KPX adieresis quoteright -40
KPX adieresis yacute -32

KPX ae v -27
KPX ae w -28
KPX ae y -30
KPX ae yacute -30

KPX agrave v -30
KPX agrave w -31
KPX agrave y -32
KPX agrave yacute -32

KPX aring v -30
KPX aring w -31
KPX aring y -32
KPX aring yacute -32

KPX b v -29
KPX b w -30
KPX b y -32
KPX b yacute -32

KPX c h -15
KPX c k -19

KPX comma one -52
KPX comma quotedblright -29
KPX comma quoteright -53

KPX e quoteright -30
KPX e t -10
KPX e v -27
KPX e w -28
KPX e x -35
KPX e y -30
KPX e tcaron -10
KPX e yacute -30

KPX eacute v -27
KPX eacute w -28
KPX eacute y -30
KPX eacute quoteright -30
KPX eacute t -10
KPX eacute x -35
KPX eacute tcaron -10
KPX eacute yacute -30
KPX eacute quotedblleft 139

KPX ecircumflex v -27
KPX ecircumflex w -28
KPX ecircumflex y -30
KPX ecircumflex yacute -30

KPX eight one -64
KPX eight seven -15

KPX f a -25
KPX f aacute -25
KPX f adieresis 12
KPX f ae -25
KPX f e -34
KPX f eacute -34
KPX f i 15
KPX f l 44
KPX f o -38
KPX f oacute -38
KPX f oe -36
KPX f oslash -37
KPX f quoteright 17
KPX f s -21
KPX f t 10
KPX f ecaron -34
KPX f iacute 15
KPX f lcaron 44
KPX f lacute 44
KPX f ocircumflex -38
KPX f odieresis -38
KPX f scaron -21
KPX f tcaron 10

KPX five one -70
KPX five seven -36

KPX four four 14
KPX four one -75
KPX four seven -42

KPX g a -17
KPX g adieresis -17
KPX g ae -18
KPX g aring -17
KPX g e -25
KPX g eacute -25
KPX g oacute -26
KPX g odieresis -26
KPX g r 11
KPX g aacute -17
KPX g ecaron -25
KPX g rcaron 11
KPX g racute 11

KPX guillemotright A -62
KPX guillemotright AE -61
KPX guillemotright Aacute -62
KPX guillemotright Adieresis -62
KPX guillemotright Aring -62
KPX guillemotright T -114
KPX guillemotright V -117
KPX guillemotright W -95
KPX guillemotright Y -138
KPX guillemotright Tcaron -114
KPX guillemotright Yacute -138

KPX guilsinglright A -72
KPX guilsinglright AE -71
KPX guilsinglright Aacute -72
KPX guilsinglright Adieresis -72
KPX guilsinglright Aring -72
KPX guilsinglright T -124
KPX guilsinglright V -128
KPX guilsinglright W -105
KPX guilsinglright Y -149
KPX guilsinglright Tcaron -124
KPX guilsinglright Yacute -149

KPX h quoteright -38
KPX h y -30
KPX h yacute -30

KPX hyphen A -26
KPX hyphen AE -25
KPX hyphen Aacute -26
KPX hyphen Adieresis -26
KPX hyphen Aring -26
KPX hyphen T -77
KPX hyphen V -82
KPX hyphen W -59
KPX hyphen Y -108
KPX hyphen Tcaron -77
KPX hyphen Yacute -108

KPX i T -28
KPX i j -36
KPX i Tcaron -28

KPX k e -19
KPX k eacute -19
KPX k g -12
KPX k hyphen -65
KPX k o -32
KPX k oacute -32
KPX k odieresis -32
KPX k u 14
KPX k udieresis 14
KPX k ecaron -19
KPX k ocircumflex -32
KPX k uring 14
KPX k uacute 14

KPX l v -28
KPX l y -25
KPX l yacute -25

KPX m v -30
KPX m w -31
KPX m y -31
KPX m yacute -31

KPX n T -55
KPX n p -13
KPX n quoteright -39
KPX n v -30
KPX n w -31
KPX n y -31
KPX n Tcaron -55
KPX n yacute -31

KPX nine one -63

KPX o T -91
KPX o quoteright -34
KPX o v -36
KPX o w -36
KPX o x -36
KPX o y -41
KPX o Tcaron -91
KPX o yacute -41

KPX oacute v -36
KPX oacute w -36
KPX oacute y -41
KPX oacute T -91
KPX oacute quoteright -34
KPX oacute x -36
KPX oacute Tcaron -91
KPX oacute yacute -41

KPX odieresis v -36
KPX odieresis w -36
KPX odieresis x -36
KPX odieresis y -41
KPX odieresis T -91
KPX odieresis quoteright -34
KPX odieresis Tcaron -91
KPX odieresis yacute -41

KPX ograve v -36
KPX ograve w -36
KPX ograve y -41
KPX ograve yacute -41

KPX one comma -48
KPX one eight -68
KPX one five -37
KPX one four -72
KPX one nine -61
KPX one one -78
KPX one period -55
KPX one seven -78
KPX one six -66
KPX one three -41
KPX one two -34
KPX one zero -54

KPX p y -28
KPX p yacute -28

KPX period one -61
KPX period quotedblright -33
KPX period quoteright -58

KPX q u -12
KPX q udieresis -12
KPX q uring -12
KPX q uacute -12

KPX quotedblbase A 12
KPX quotedblbase AE 19
KPX quotedblbase T -60
KPX quotedblbase V -104
KPX quotedblbase W -76
KPX quotedblbase Y -87
KPX quotedblbase Aacute 12
KPX quotedblbase Adieresis 12
KPX quotedblbase Tcaron -60
KPX quotedblbase Yacute -87

KPX quotedblleft A -86
KPX quotedblleft AE -91
KPX quotedblleft Aacute -86
KPX quotedblleft Adieresis -86
KPX quotedblleft Aring -86
KPX quotedblleft T 14
KPX quotedblleft Tcaron 14

KPX quotedblright A -94
KPX quotedblright AE -99
KPX quotedblright Aacute -94
KPX quotedblright Adieresis -94
KPX quotedblright Aring -94
KPX quotedblright T 11
KPX quotedblright Tcaron 11

KPX quoteleft A -110
KPX quoteleft AE -115
KPX quoteleft Aacute -110
KPX quoteleft Adieresis -110
KPX quoteleft Aring -110
KPX quoteleft V -23
KPX quoteleft W -17
KPX quoteleft Y -26
KPX quoteleft Yacute -26

KPX quoteright A -130
KPX quoteright AE -135
KPX quoteright Aacute -130
KPX quoteright Adieresis -130
KPX quoteright Aring -130
KPX quoteright comma -71
KPX quoteright d -56
KPX quoteright o -54
KPX quoteright period -78
KPX quoteright r -44
KPX quoteright s -47
KPX quoteright t -43
KPX quoteright v -47
KPX quoteright w -47
KPX quoteright y -45
KPX quoteright dcaron -56
KPX quoteright ocircumflex -54
KPX quoteright odieresis -54
KPX quoteright oacute -54
KPX quoteright rcaron -44
KPX quoteright racute -44
KPX quoteright scaron -47
KPX quoteright tcaron -43
KPX quoteright yacute -45

KPX r comma -41
KPX r d -10
KPX r f 19
KPX r g -15
KPX r hyphen -46
KPX r i 20
KPX r j 14
KPX r k -10
KPX r l -18
KPX r m 20
KPX r n 22
KPX r p 25
KPX r period -48
KPX r q -10
KPX r quoteright -19
KPX r r 26
KPX r t 23
KPX r u 19
KPX r v 20
KPX r w 19
KPX r x 17
KPX r y 22
KPX r dcaron -10
KPX r iacute 20
KPX r lcaron -18
KPX r lacute -18
KPX r ncaron 22
KPX r rcaron 26
KPX r racute 26
KPX r tcaron 23
KPX r udieresis 19
KPX r uring 19
KPX r uacute 19
KPX r yacute 22

KPX s quoteright -38
KPX s t -15
KPX s tcaron -15

KPX seven colon -68
KPX seven comma -72
KPX seven eight -40
KPX seven five -59
KPX seven four -63
KPX seven one -56
KPX seven period -79
KPX seven seven -20
KPX seven six -46
KPX seven three -35
KPX seven two -31

KPX six four 12
KPX six one -74
KPX six seven -29

KPX t a 10
KPX t aacute 10
KPX t adieresis 10
KPX t aring 10
KPX t h 10
KPX t quoteright -29

KPX three one -75
KPX three seven -28

KPX two one -60
KPX two seven -16

KPX u quoteright -36

KPX v a -24
KPX v aacute -24
KPX v acircumflex -24
KPX v adieresis -24
KPX v ae -24
KPX v agrave -24
KPX v aring -24
KPX v atilde -24
KPX v c -37
KPX v colon -20
KPX v comma -69
KPX v e -36
KPX v eacute -36
KPX v ecircumflex -36
KPX v egrave -36
KPX v g -41
KPX v hyphen -28
KPX v l -31
KPX v o -38
KPX v oacute -38
KPX v odieresis -38
KPX v ograve -38
KPX v oslash -38
KPX v period -76
KPX v s -21
KPX v semicolon -20
KPX v ccaron -37
KPX v ecaron -36
KPX v lcaron -31
KPX v lacute -31
KPX v ocircumflex -38
KPX v scaron -21

KPX w a -27
KPX w aacute -27
KPX w acircumflex -27
KPX w adieresis -27
KPX w ae -27
KPX w agrave -27
KPX w aring -27
KPX w atilde -27
KPX w c -33
KPX w colon -23
KPX w comma -64
KPX w e -31
KPX w eacute -31
KPX w ecircumflex -31
KPX w egrave -31
KPX w g -43
KPX w hyphen -24
KPX w l -33
KPX w o -35
KPX w oacute -35
KPX w odieresis -35
KPX w ograve -35
KPX w oslash -34
KPX w period -71
KPX w s -23
KPX w semicolon -23
KPX w ccaron -33
KPX w ecaron -31
KPX w lcaron -33
KPX w lacute -33
KPX w ocircumflex -35
KPX w scaron -23

KPX x a -11
KPX x c -34
KPX x e -32
KPX x eacute -32
KPX x o -45
KPX x q -26
KPX x aacute -11
KPX x adieresis -11
KPX x ccaron -34
KPX x ecaron -32
KPX x ocircumflex -45
KPX x odieresis -45
KPX x oacute -45

KPX y a -32
KPX y aacute -32
KPX y acircumflex -32
KPX y adieresis -32
KPX y ae -31
KPX y agrave -32
KPX y aring -32
KPX y atilde -32
KPX y c -37
KPX y colon -23
KPX y comma -66
KPX y e -35
KPX y eacute -35
KPX y ecircumflex -35
KPX y egrave -35
KPX y g -48
KPX y hyphen -27
KPX y l -32
KPX y o -39
KPX y oacute -39
KPX y odieresis -39
KPX y ograve -39
KPX y oslash -38
KPX y period -73
KPX y s -26
KPX y semicolon -23
KPX y ccaron -37
KPX y ecaron -35
KPX y lcaron -32
KPX y lacute -32
KPX y ocircumflex -39
KPX y scaron -26

KPX zero four 12
KPX zero one -55

KPX Ccaron A -23
KPX Ccaron AE -15
KPX Ccaron Aacute -23
KPX Ccaron Adieresis -23
KPX Ccaron Aring -23
KPX Ccaron K -10
KPX Ccaron O -12
KPX Ccaron Oacute -12
KPX Ccaron Odieresis -12
KPX Ccaron Ocircumflex -12

KPX ccaron h -15
KPX ccaron k -19

KPX Dcaron A -67
KPX Dcaron Aacute -67
KPX Dcaron Acircumflex -67
KPX Dcaron Adieresis -67
KPX Dcaron Agrave -67
KPX Dcaron Aring -67
KPX Dcaron Atilde -67
KPX Dcaron J -41
KPX Dcaron T -10
KPX Dcaron V -71
KPX Dcaron W -57
KPX Dcaron X -64
KPX Dcaron Y -74
KPX Dcaron Tcaron -10
KPX Dcaron Yacute -74

KPX dcaron a -67
KPX dcaron aacute -67
KPX dcaron adieresis -30
KPX dcaron ae -67
KPX dcaron e -76
KPX dcaron eacute -76
KPX dcaron i -27
KPX dcaron o -80
KPX dcaron oacute -80
KPX dcaron oe -78
KPX dcaron oslash -79
KPX dcaron quoteright -25
KPX dcaron s -63
KPX dcaron t -32
KPX dcaron ecaron -76
KPX dcaron iacute -27
KPX dcaron ocircumflex -80
KPX dcaron odieresis -80
KPX dcaron scaron -63
KPX dcaron tcaron -32

KPX ecaron quoteright -30
KPX ecaron t -10
KPX ecaron v -27
KPX ecaron w -28
KPX ecaron x -35
KPX ecaron y -30
KPX ecaron tcaron -10
KPX ecaron yacute -30
KPX ecaron quotedblleft 139

KPX iacute T -28
KPX iacute j -36
KPX iacute Tcaron -28
KPX iacute quotedblleft 139

KPX Lcaron T -73
KPX Lcaron U -26
KPX Lcaron Udieresis -26
KPX Lcaron V -115
KPX Lcaron W -89
KPX Lcaron Y -100
KPX Lcaron hyphen 25
KPX Lcaron quotedblright -100
KPX Lcaron quoteright -125
KPX Lcaron u -10
KPX Lcaron udieresis -10
KPX Lcaron y -56
KPX Lcaron Tcaron -73
KPX Lcaron Uring -26
KPX Lcaron Uacute -26
KPX Lcaron uring -10
KPX Lcaron uacute -10
KPX Lcaron Yacute -100
KPX Lcaron yacute -56

KPX Lacute T -73
KPX Lacute U -26
KPX Lacute Udieresis -26
KPX Lacute V -115
KPX Lacute W -89
KPX Lacute Y -100
KPX Lacute hyphen 25
KPX Lacute quotedblright -100
KPX Lacute quoteright -125
KPX Lacute u -10
KPX Lacute udieresis -10
KPX Lacute y -56
KPX Lacute Tcaron -73
KPX Lacute Uring -26
KPX Lacute Uacute -26
KPX Lacute uring -10
KPX Lacute uacute -10
KPX Lacute Yacute -100
KPX Lacute yacute -56

KPX lcaron a -67
KPX lcaron aacute -67
KPX lcaron adieresis -30
KPX lcaron ae -67
KPX lcaron e -76
KPX lcaron eacute -76
KPX lcaron i -27
KPX lcaron o -80
KPX lcaron oacute -80
KPX lcaron oe -78
KPX lcaron oslash -79
KPX lcaron quoteright -25
KPX lcaron s -63
KPX lcaron t -32
KPX lcaron ecaron -76
KPX lcaron iacute -27
KPX lcaron ocircumflex -80
KPX lcaron odieresis -80
KPX lcaron scaron -63
KPX lcaron tcaron -32

KPX lacute v -28
KPX lacute y -25
KPX lacute yacute -25

KPX Ncaron A -28
KPX Ncaron AE -21
KPX Ncaron Aacute -28
KPX Ncaron Adieresis -28
KPX Ncaron Aring -28
KPX Ncaron C -16
KPX Ncaron Ccedilla -16
KPX Ncaron G -19
KPX Ncaron O -20
KPX Ncaron Oacute -20
KPX Ncaron Odieresis -20
KPX Ncaron a -27
KPX Ncaron aacute -27
KPX Ncaron adieresis -27
KPX Ncaron ae -27
KPX Ncaron aring -27
KPX Ncaron comma -14
KPX Ncaron e -17
KPX Ncaron eacute -17
KPX Ncaron o -21
KPX Ncaron oacute -21
KPX Ncaron odieresis -21
KPX Ncaron oslash -20
KPX Ncaron period -21
KPX Ncaron u -25
KPX Ncaron udieresis -25
KPX Ncaron Ccaron -16
KPX Ncaron ecaron -17
KPX Ncaron Ocircumflex -20
KPX Ncaron ocircumflex -21
KPX Ncaron uring -25
KPX Ncaron uacute -25

KPX ncaron T -55
KPX ncaron p -13
KPX ncaron quoteright -39
KPX ncaron v -30
KPX ncaron w -31
KPX ncaron y -31
KPX ncaron Tcaron -55
KPX ncaron yacute -31

KPX ocircumflex T -91
KPX ocircumflex quoteright -34
KPX ocircumflex v -36
KPX ocircumflex w -36
KPX ocircumflex x -36
KPX ocircumflex y -41
KPX ocircumflex Tcaron -91
KPX ocircumflex yacute -41

KPX Rcaron C -41
KPX Rcaron Ccedilla -41
KPX Rcaron G -44
KPX Rcaron O -45
KPX Rcaron OE -39
KPX Rcaron Oacute -45
KPX Rcaron Odieresis -45
KPX Rcaron T -34
KPX Rcaron U -56
KPX Rcaron Udieresis -55
KPX Rcaron V -73
KPX Rcaron W -67
KPX Rcaron Y -76
KPX Rcaron e -23
KPX Rcaron eacute -23
KPX Rcaron hyphen -52
KPX Rcaron o -36
KPX Rcaron oacute -36
KPX Rcaron odieresis -36
KPX Rcaron oe -31
KPX Rcaron u -24
KPX Rcaron uacute -24
KPX Rcaron udieresis -24
KPX Rcaron y -37
KPX Rcaron Ccaron -41
KPX Rcaron ecaron -23
KPX Rcaron Ocircumflex -45
KPX Rcaron ocircumflex -36
KPX Rcaron Tcaron -34
KPX Rcaron Uring -56
KPX Rcaron Uacute -56
KPX Rcaron uring -24
KPX Rcaron Yacute -76
KPX Rcaron yacute -37

KPX Racute C -41
KPX Racute Ccedilla -41
KPX Racute G -44
KPX Racute O -45
KPX Racute OE -39
KPX Racute Oacute -45
KPX Racute Odieresis -45
KPX Racute T -34
KPX Racute U -56
KPX Racute Udieresis -55
KPX Racute V -73
KPX Racute W -67
KPX Racute Y -76
KPX Racute e -23
KPX Racute eacute -23
KPX Racute hyphen -52
KPX Racute o -36
KPX Racute oacute -36
KPX Racute odieresis -36
KPX Racute oe -31
KPX Racute u -24
KPX Racute uacute -24
KPX Racute udieresis -24
KPX Racute y -37
KPX Racute Ccaron -41
KPX Racute ecaron -23
KPX Racute Ocircumflex -45
KPX Racute ocircumflex -36
KPX Racute Tcaron -34
KPX Racute Uring -56
KPX Racute Uacute -56
KPX Racute uring -24
KPX Racute Yacute -76
KPX Racute yacute -37

KPX rcaron comma -41
KPX rcaron d -10
KPX rcaron f 19
KPX rcaron g -15
KPX rcaron hyphen -46
KPX rcaron i 20
KPX rcaron j 14
KPX rcaron k -10
KPX rcaron l -18
KPX rcaron m 20
KPX rcaron n 22
KPX rcaron p 25
KPX rcaron period -48
KPX rcaron q -10
KPX rcaron quoteright -19
KPX rcaron r 26
KPX rcaron t 23
KPX rcaron u 19
KPX rcaron v 20
KPX rcaron w 19
KPX rcaron x 17
KPX rcaron y 22
KPX rcaron dcaron -10
KPX rcaron iacute 20
KPX rcaron lcaron -18
KPX rcaron lacute -18
KPX rcaron ncaron 22
KPX rcaron rcaron 26
KPX rcaron racute 26
KPX rcaron tcaron 23
KPX rcaron udieresis 19
KPX rcaron uring 19
KPX rcaron uacute 19
KPX rcaron yacute 22

KPX racute comma -41
KPX racute d -10
KPX racute f 19
KPX racute g -15
KPX racute hyphen -46
KPX racute i 20
KPX racute j 14
KPX racute k -10
KPX racute l -18
KPX racute m 20
KPX racute n 22
KPX racute p 25
KPX racute period -48
KPX racute q -10
KPX racute quoteright -19
KPX racute r 26
KPX racute t 23
KPX racute u 19
KPX racute v 20
KPX racute w 19
KPX racute x 17
KPX racute y 22
KPX racute dcaron -10
KPX racute iacute 20
KPX racute lcaron -18
KPX racute lacute -18
KPX racute ncaron 22
KPX racute rcaron 26
KPX racute racute 26
KPX racute tcaron 23
KPX racute udieresis 19
KPX racute uring 19
KPX racute uacute 19
KPX racute yacute 22

KPX Scaron A -37
KPX Scaron AE -30
KPX Scaron Aacute -37
KPX Scaron Adieresis -37
KPX Scaron Aring -37
KPX Scaron T -19
KPX Scaron V -27
KPX Scaron W -21
KPX Scaron Y -30
KPX Scaron t -20
KPX Scaron Tcaron -19
KPX Scaron tcaron -20
KPX Scaron Yacute -30

KPX scaron quoteright -38
KPX scaron t -15
KPX scaron tcaron -15

KPX Tcaron A -53
KPX Tcaron AE -45
KPX Tcaron Aacute -53
KPX Tcaron Acircumflex -53
KPX Tcaron Adieresis -53
KPX Tcaron Agrave -53
KPX Tcaron Aring -53
KPX Tcaron Atilde -53
KPX Tcaron G -11
KPX Tcaron J -18
KPX Tcaron O -10
KPX Tcaron Oacute -10
KPX Tcaron Ocircumflex -10
KPX Tcaron Odieresis -10
KPX Tcaron Ograve -10
KPX Tcaron Oslash -10
KPX Tcaron Otilde -10
KPX Tcaron S -10
KPX Tcaron V 14
KPX Tcaron W 20
KPX Tcaron Y 11
KPX Tcaron a -77
KPX Tcaron ae -80
KPX Tcaron c -87
KPX Tcaron colon -87
KPX Tcaron comma -74
KPX Tcaron e -86
KPX Tcaron g -91
KPX Tcaron guillemotleft -114
KPX Tcaron guilsinglleft -125
KPX Tcaron hyphen -73
KPX Tcaron i -18
KPX Tcaron j -25
KPX Tcaron o -90
KPX Tcaron oslash -89
KPX Tcaron period -82
KPX Tcaron r -50
KPX Tcaron s -73
KPX Tcaron semicolon -87
KPX Tcaron u -93
KPX Tcaron v -105
KPX Tcaron w -106
KPX Tcaron y -102
KPX Tcaron ccaron -87
KPX Tcaron iacute -18
KPX Tcaron ocircumflex -90
KPX Tcaron odieresis -90
KPX Tcaron oacute -90
KPX Tcaron Scaron -10
KPX Tcaron udieresis -93
KPX Tcaron uring -93
KPX Tcaron uacute -93
KPX Tcaron Yacute 11
KPX Tcaron yacute -102

KPX tcaron a -67
KPX tcaron aacute -67
KPX tcaron adieresis -30
KPX tcaron ae -67
KPX tcaron e -76
KPX tcaron eacute -76
KPX tcaron i -27
KPX tcaron o -80
KPX tcaron oacute -80
KPX tcaron oe -78
KPX tcaron oslash -79
KPX tcaron quoteright -25
KPX tcaron s -63
KPX tcaron t -32
KPX tcaron ecaron -76
KPX tcaron iacute -27
KPX tcaron ocircumflex -80
KPX tcaron odieresis -80
KPX tcaron scaron -63
KPX tcaron tcaron -32

KPX Uring A -65
KPX Uring AE -58
KPX Uring Aacute -65
KPX Uring Acircumflex -65
KPX Uring Adieresis -65
KPX Uring Aring -65
KPX Uring Atilde -65
KPX Uring comma -31
KPX Uring m -33
KPX Uring n -31
KPX Uring p -28
KPX Uring period -37
KPX Uring r -27
KPX Uring ncaron -31
KPX Uring rcaron -27
KPX Uring racute -27

KPX udieresis quoteright -36

KPX uring quoteright -36

KPX uacute quoteright -36

KPX Yacute A -74
KPX Yacute AE -67
KPX Yacute Aacute -74
KPX Yacute Acircumflex -74
KPX Yacute Adieresis -74
KPX Yacute Agrave -74
KPX Yacute Aring -74
KPX Yacute Atilde -74
KPX Yacute C -68
KPX Yacute G -71
KPX Yacute O -69
KPX Yacute Oacute -69
KPX Yacute Ocircumflex -69
KPX Yacute Odieresis -69
KPX Yacute Ograve -69
KPX Yacute Oslash -69
KPX Yacute Otilde -69
KPX Yacute S -44
KPX Yacute T 13
KPX Yacute a -99
KPX Yacute ae -102
KPX Yacute colon -109
KPX Yacute comma -96
KPX Yacute e -103
KPX Yacute g -113
KPX Yacute guillemotleft -135
KPX Yacute guilsinglleft -145
KPX Yacute hyphen -98
KPX Yacute i -17
KPX Yacute o -107
KPX Yacute oslash -106
KPX Yacute p -88
KPX Yacute period -103
KPX Yacute semicolon -108
KPX Yacute u -78
KPX Yacute v -86
KPX Yacute aacute -99
KPX Yacute adieresis -99
KPX Yacute Ccaron -68
KPX Yacute ecaron -103
KPX Yacute eacute -103
KPX Yacute iacute -17
KPX Yacute ocircumflex -107
KPX Yacute odieresis -107
KPX Yacute oacute -107
KPX Yacute Scaron -44
KPX Yacute Tcaron 13
KPX Yacute udieresis -78
KPX Yacute uring -78
KPX Yacute uacute -78

KPX yacute a -32
KPX yacute aacute -32
KPX yacute acircumflex -32
KPX yacute adieresis -32
KPX yacute ae -31
KPX yacute agrave -32
KPX yacute aring -32
KPX yacute atilde -32
KPX yacute c -37
KPX yacute colon -23
KPX yacute comma -66
KPX yacute e -35
KPX yacute eacute -35
KPX yacute ecircumflex -35
KPX yacute egrave -35
KPX yacute g -48
KPX yacute hyphen -27
KPX yacute l -32
KPX yacute o -39
KPX yacute oacute -39
KPX yacute odieresis -39
KPX yacute ograve -39
KPX yacute oslash -38
KPX yacute period -73
KPX yacute s -26
KPX yacute semicolon -23
KPX yacute ccaron -37
KPX yacute ecaron -35
KPX yacute lcaron -32
KPX yacute lacute -32
KPX yacute ocircumflex -39
KPX yacute scaron -26

KPX Zcaron v -48
KPX Zcaron y -50
KPX Zcaron yacute -50

EndKernPairs
EndKernData
EndFontMetrics
