StartFontMetrics 2.0
FontName TimesNewRoman-BoldItalic
UnderlineThickness 20
ItalicAngle 0
Ascent 800
FamilyName TimesNewRoman
UnderlinePosition -133
IsFixedPitch false
Descent 200
Em 1000
Notice This font is created by Peter Soos. The font encoding is Latin-2 (ISO-8859.2).
Version 001.000
FullName TimesNewRoman-BoldItalic
Weight Bold
FontBBox -154 -231 905 801
StartCharMetrics 198
C 32 ; WX 226 ; N space ; B 226 0 226 0 ;
C 33 ; WX 351 ; N exclam ; B 50 -13 318 612 ;
C 34 ; WX 501 ; N quotedbl ; B 149 318 505 612 ;
C 35 ; WX 452 ; N numbersign ; B 18 -13 434 611 ;
C 36 ; WX 452 ; N dollar ; B 35 -69 452 636 ;
C 37 ; WX 752 ; N percent ; B 98 -25 705 612 ;
C 38 ; WX 703 ; N ampersand ; B 42 -14 639 612 ;
C 39 ; WX 251 ; N quoteright ; B 141 319 284 612 ;
C 40 ; WX 301 ; N parenleft ; B 45 -172 393 612 ;
C 41 ; WX 301 ; N parenright ; B -102 -172 245 612 ;
C 42 ; WX 452 ; N asterisk ; B 108 270 460 612 ;
C 43 ; WX 515 ; N plus ; B 18 60 500 540 ;
C 44 ; WX 226 ; N comma ; B -25 -145 159 135 ;
C 45 ; WX 301 ; N hyphen ; B 5 152 291 244 ;
C 46 ; WX 226 ; N period ; B -12 -13 133 132 ;
C 47 ; WX 251 ; N slash ; B -73 -14 375 611 ;
C 48 ; WX 452 ; N zero ; B 50 -13 451 611 ;
C 49 ; WX 452 ; N one ; B 21 0 402 611 ;
C 50 ; WX 452 ; N two ; B 4 0 436 611 ;
C 51 ; WX 452 ; N three ; B 11 -13 425 611 ;
C 52 ; WX 452 ; N four ; B 16 -13 453 611 ;
C 53 ; WX 452 ; N five ; B 34 -13 455 598 ;
C 54 ; WX 452 ; N six ; B 54 -13 461 615 ;
C 55 ; WX 452 ; N seven ; B 107 -13 500 598 ;
C 56 ; WX 452 ; N eight ; B 33 -13 444 611 ;
C 57 ; WX 452 ; N nine ; B 38 -13 445 615 ;
C 58 ; WX 301 ; N colon ; B 36 -13 261 408 ;
C 59 ; WX 301 ; N semicolon ; B 0 -145 264 408 ;
C 60 ; WX 515 ; N less ; B 18 81 500 513 ;
C 61 ; WX 515 ; N equal ; B 18 197 500 398 ;
C 62 ; WX 515 ; N greater ; B 18 81 500 513 ;
C 63 ; WX 452 ; N question ; B 79 -13 430 612 ;
C 64 ; WX 752 ; N at ; B 41 -195 820 612 ;
C 65 ; WX 603 ; N A ; B -51 0 542 612 ;
C 66 ; WX 603 ; N B ; B -23 0 583 598 ;
C 67 ; WX 603 ; N C ; B 59 -14 651 612 ;
C 68 ; WX 652 ; N D ; B -33 0 634 598 ;
C 69 ; WX 603 ; N E ; B -32 0 614 598 ;
C 70 ; WX 603 ; N F ; B -29 0 623 598 ;
C 71 ; WX 652 ; N G ; B 62 -14 675 612 ;
C 72 ; WX 703 ; N H ; B -29 0 779 598 ;
C 73 ; WX 351 ; N I ; B -32 0 422 598 ;
C 74 ; WX 452 ; N J ; B -7 -14 540 598 ;
C 75 ; WX 603 ; N K ; B -29 0 675 598 ;
C 76 ; WX 552 ; N L ; B -24 0 519 598 ;
C 77 ; WX 803 ; N M ; B -31 0 880 598 ;
C 78 ; WX 652 ; N N ; B -29 -6 733 598 ;
C 79 ; WX 652 ; N O ; B 48 -14 649 612 ;
C 80 ; WX 552 ; N P ; B -27 0 582 598 ;
C 81 ; WX 652 ; N Q ; B 48 -188 649 612 ;
C 82 ; WX 603 ; N R ; B -29 0 577 598 ;
C 83 ; WX 502 ; N S ; B -20 -14 527 612 ;
C 84 ; WX 552 ; N T ; B 72 0 626 598 ;
C 85 ; WX 652 ; N U ; B 85 -14 731 598 ;
C 86 ; WX 603 ; N V ; B 107 -14 701 598 ;
C 87 ; WX 803 ; N W ; B 111 -14 905 598 ;
C 88 ; WX 603 ; N X ; B -55 0 689 598 ;
C 89 ; WX 552 ; N Y ; B 84 0 648 598 ;
C 90 ; WX 552 ; N Z ; B -24 0 613 598 ;
C 91 ; WX 301 ; N bracketleft ; B -26 -166 388 598 ;
C 92 ; WX 251 ; N backslash ; B 70 -14 183 611 ;
C 93 ; WX 301 ; N bracketright ; B -100 -166 313 598 ;
C 94 ; WX 515 ; N asciicircum ; B 92 294 488 611 ;
C 95 ; WX 452 ; N underscore ; B -9 -195 459 -137 ;
C 96 ; WX 301 ; N quoteleft ; B 107 459 285 612 ;
C 97 ; WX 452 ; N a ; B 18 -13 433 409 ;
C 98 ; WX 452 ; N b ; B 8 -13 424 612 ;
C 99 ; WX 401 ; N c ; B 25 -13 396 409 ;
C 100 ; WX 452 ; N d ; B 18 -13 492 612 ;
C 101 ; WX 401 ; N e ; B 22 -13 399 409 ;
C 102 ; WX 301 ; N f ; B -145 -195 458 612 ;
C 103 ; WX 452 ; N g ; B -47 -195 467 409 ;
C 104 ; WX 502 ; N h ; B 9 -5 453 612 ;
C 105 ; WX 251 ; N i ; B 20 -13 269 612 ;
C 106 ; WX 251 ; N j ; B -144 -195 270 612 ;
C 107 ; WX 452 ; N k ; B 5 -6 463 612 ;
C 108 ; WX 251 ; N l ; B 14 -13 287 612 ;
C 109 ; WX 703 ; N m ; B 10 -5 656 409 ;
C 110 ; WX 502 ; N n ; B 10 -5 453 409 ;
C 111 ; WX 452 ; N o ; B 22 -13 425 409 ;
C 112 ; WX 452 ; N p ; B -110 -193 428 409 ;
C 113 ; WX 452 ; N q ; B 17 -193 436 409 ;
C 114 ; WX 351 ; N r ; B 15 0 363 409 ;
C 115 ; WX 351 ; N s ; B -2 -13 334 409 ;
C 116 ; WX 251 ; N t ; B 19 -13 283 517 ;
C 117 ; WX 502 ; N u ; B 29 -13 466 409 ;
C 118 ; WX 401 ; N v ; B 27 -13 401 409 ;
C 119 ; WX 603 ; N w ; B 25 -13 599 409 ;
C 120 ; WX 452 ; N x ; B -41 -13 459 409 ;
C 121 ; WX 401 ; N y ; B -83 -195 401 409 ;
C 122 ; WX 351 ; N z ; B -11 -77 357 397 ;
C 123 ; WX 314 ; N braceleft ; B 60 -182 434 612 ;
C 124 ; WX 199 ; N bar ; B 70 -195 127 612 ;
C 125 ; WX 314 ; N braceright ; B -62 -182 311 612 ;
C 126 ; WX 515 ; N asciitilde ; B 17 170 498 313 ;
C 129 ; WX 500 ; N quotedblbase ; B -57 -182 403 134 ;
C 130 ; WX 1000 ; N ellipsis ; B 41 -13 853 135 ;
C 133 ; WX 500 ; N quotedblleft ; B 53 369 513 685 ;
C 134 ; WX 500 ; N quotedblright ; B 53 369 513 685 ;
C 137 ; WX 500 ; N endash ; B -40 178 477 269 ;
C 138 ; WX 1000 ; N emdash ; B -40 178 977 269 ;
C 139 ; WX 350 ; N bullet ; B 0 175 350 525 ;
C 160 ; WX 226 ; N nbspace ; B 226 0 226 0 ;
C 161 ; WX 603 ; N Aogonek ; B -51 -180 563 612 ;
C 162 ; WX 301 ; N breve ; B 119 458 364 612 ;
C 163 ; WX 552 ; N Lstroke ; B -24 0 519 598 ;
C 164 ; WX 452 ; N currency ; B 9 84 444 512 ;
C 165 ; WX 552 ; N Lcaron ; B -24 0 602 612 ;
C 166 ; WX 502 ; N Sacute ; B -20 -14 527 789 ;
C 167 ; WX 452 ; N section ; B -13 -195 479 612 ;
C 168 ; WX 301 ; N dieresis ; B 81 477 362 594 ;
C 169 ; WX 502 ; N Scaron ; B -20 -14 527 792 ;
C 170 ; WX 502 ; N Scedilla ; B -20 -166 527 612 ;
C 171 ; WX 552 ; N Tcaron ; B 72 0 626 792 ;
C 172 ; WX 552 ; N Zacute ; B -24 0 613 789 ;
C 173 ; WX 301 ; N softhyphen ; B 5 152 291 244 ;
C 174 ; WX 552 ; N Zcaron ; B -24 0 613 792 ;
C 175 ; WX 552 ; N Zabovedot ; B -24 0 613 762 ;
C 176 ; WX 361 ; N degree ; B 79 305 385 611 ;
C 177 ; WX 452 ; N aogonek ; B 18 -185 433 409 ;
C 178 ; WX 301 ; N ogonek ; B -78 -180 117 8 ;
C 179 ; WX 251 ; N lstroke ; B 0 -13 287 612 ;
C 180 ; WX 301 ; N acute ; B 177 457 366 612 ;
C 181 ; WX 471 ; N lcaron ; B 14 -13 473 612 ;
C 182 ; WX 351 ; N sacute ; B -2 -13 381 612 ;
C 183 ; WX 301 ; N caron ; B 98 461 378 612 ;
C 184 ; WX 301 ; N cedilla ; B 5 -166 206 0 ;
C 185 ; WX 351 ; N scaron ; B -2 -13 364 612 ;
C 186 ; WX 351 ; N scedilla ; B -2 -166 334 409 ;
C 187 ; WX 480 ; N tcaron ; B 18 -13 491 612 ;
C 188 ; WX 351 ; N zacute ; B -11 -77 385 612 ;
C 189 ; WX 301 ; N doubleacute ; B 126 459 407 612 ;
C 190 ; WX 351 ; N zcaron ; B -11 -77 378 612 ;
C 191 ; WX 351 ; N zabovedot ; B -11 -77 357 599 ;
C 192 ; WX 603 ; N Racute ; B -29 0 577 789 ;
C 193 ; WX 603 ; N Aacute ; B -51 0 666 789 ;
C 194 ; WX 603 ; N Acircumflex ; B -51 0 619 790 ;
C 195 ; WX 603 ; N Abreve ; B -51 0 663 799 ;
C 196 ; WX 603 ; N Adieresis ; B -51 0 651 769 ;
C 197 ; WX 552 ; N Lacute ; B -24 0 519 789 ;
C 198 ; WX 603 ; N Cacute ; B 59 -14 651 789 ;
C 199 ; WX 603 ; N Ccedilla ; B 59 -166 651 612 ;
C 200 ; WX 603 ; N Ccaron ; B 59 -14 651 792 ;
C 201 ; WX 603 ; N Eacute ; B -32 0 614 789 ;
C 202 ; WX 603 ; N Eogonek ; B -32 -180 614 598 ;
C 203 ; WX 603 ; N Edieresis ; B -32 0 614 769 ;
C 204 ; WX 603 ; N Ecaron ; B -32 0 614 792 ;
C 205 ; WX 351 ; N Iacute ; B -32 0 475 789 ;
C 206 ; WX 351 ; N Icircumflex ; B -32 0 423 790 ;
C 207 ; WX 652 ; N Dcaron ; B -33 0 634 792 ;
C 208 ; WX 652 ; N Dstroke ; B -29 0 640 598 ;
C 209 ; WX 652 ; N Nacute ; B -29 -6 733 789 ;
C 210 ; WX 652 ; N Ncaron ; B -29 -6 733 792 ;
C 211 ; WX 652 ; N Oacute ; B 48 -14 649 801 ;
C 212 ; WX 652 ; N Ocircumflex ; B 48 -14 649 780 ;
C 213 ; WX 652 ; N Odoubleacute ; B 48 -14 678 799 ;
C 214 ; WX 652 ; N Odieresis ; B 48 -14 649 758 ;
C 215 ; WX 515 ; N multiply ; B 68 108 450 491 ;
C 216 ; WX 603 ; N Rcaron ; B -29 0 577 792 ;
C 217 ; WX 652 ; N Uring ; B 85 -14 731 793 ;
C 218 ; WX 652 ; N Uacute ; B 85 -14 731 801 ;
C 219 ; WX 652 ; N Udoubleacute ; B 85 -14 731 799 ;
C 220 ; WX 652 ; N Udieresis ; B 85 -14 731 758 ;
C 221 ; WX 552 ; N Yacute ; B 84 0 648 789 ;
C 222 ; WX 552 ; N Tcedilla ; B 72 -231 626 598 ;
C 223 ; WX 452 ; N ssharp ; B -154 -195 457 612 ;
C 224 ; WX 351 ; N racute ; B 15 0 396 612 ;
C 225 ; WX 452 ; N aacute ; B 18 -13 436 612 ;
C 226 ; WX 452 ; N acircumflex ; B 18 -13 433 612 ;
C 227 ; WX 452 ; N abreve ; B 18 -13 433 612 ;
C 228 ; WX 452 ; N adieresis ; B 18 -13 439 594 ;
C 229 ; WX 251 ; N lacute ; B 14 -13 373 789 ;
C 230 ; WX 401 ; N cacute ; B 25 -13 428 612 ;
C 231 ; WX 401 ; N ccedilla ; B 25 -166 396 409 ;
C 232 ; WX 401 ; N ccaron ; B 25 -13 460 612 ;
C 233 ; WX 401 ; N eacute ; B 22 -13 484 612 ;
C 234 ; WX 401 ; N eogonek ; B 22 -180 399 409 ;
C 235 ; WX 401 ; N edieresis ; B 22 -13 416 594 ;
C 236 ; WX 401 ; N ecaron ; B 22 -13 455 612 ;
C 237 ; WX 251 ; N iacute ; B 20 -13 326 612 ;
C 238 ; WX 251 ; N icircumflex ; B 20 -13 307 612 ;
C 239 ; WX 677 ; N dcaron ; B 18 -13 678 612 ;
C 240 ; WX 452 ; N dstroke ; B 18 -13 531 612 ;
C 241 ; WX 502 ; N nacute ; B 10 -5 453 612 ;
C 242 ; WX 502 ; N ncaron ; B 10 -5 459 612 ;
C 243 ; WX 452 ; N oacute ; B 22 -13 453 612 ;
C 244 ; WX 452 ; N ocircumflex ; B 22 -13 425 612 ;
C 245 ; WX 452 ; N odoubleacute ; B 22 -13 546 612 ;
C 246 ; WX 452 ; N odieresis ; B 22 -13 439 594 ;
C 247 ; WX 496 ; N division ; B 7 109 490 492 ;
C 248 ; WX 351 ; N rcaron ; B 15 0 379 612 ;
C 249 ; WX 502 ; N uring ; B 29 -13 466 629 ;
C 250 ; WX 502 ; N uacute ; B 29 -13 466 612 ;
C 251 ; WX 502 ; N udoubleacute ; B 29 -13 541 612 ;
C 252 ; WX 502 ; N udieresis ; B 29 -13 466 594 ;
C 253 ; WX 401 ; N yacute ; B -83 -195 423 612 ;
C 254 ; WX 251 ; N tcedilla ; B -4 -231 283 517 ;
C 255 ; WX 301 ; N abovedot ; B 219 245 334 360 ;
EndCharMetrics

StartKernData
StartKernPairs 1752

KPX A C -61
KPX A Ccedilla -63
KPX A G -59
KPX A O -53
KPX A Odieresis -53
KPX A Q -54
KPX A T -33
KPX A U -61
KPX A Uacute -61
KPX A Ucircumflex -61
KPX A Udieresis -61
KPX A Ugrave -61
KPX A V -110
KPX A W -107
KPX A Y -44
KPX A c -20
KPX A ccedilla -29
KPX A e -25
KPX A g -20
KPX A guillemotleft -58
KPX A guilsinglleft -68
KPX A hyphen -23
KPX A o -23
KPX A q -18
KPX A quotedblright -78
KPX A quoteright -101
KPX A u -18
KPX A v -51
KPX A w -56
KPX A y -67
KPX A Ccaron -61
KPX A ccaron -20
KPX A ecaron -25
KPX A eacute -25
KPX A Ocircumflex -53
KPX A Oacute -53
KPX A ocircumflex -23
KPX A odieresis -23
KPX A oacute -23
KPX A Tcaron -33
KPX A Uring -61
KPX A udieresis -18
KPX A uring -18
KPX A uacute -18
KPX A Yacute -44
KPX A yacute -67

KPX Aacute C -61
KPX Aacute G -59
KPX Aacute O -53
KPX Aacute Q -54
KPX Aacute T -33
KPX Aacute U -61
KPX Aacute V -110
KPX Aacute W -107
KPX Aacute Y -44
KPX Aacute c -20
KPX Aacute e -25
KPX Aacute g -20
KPX Aacute guillemotleft -58
KPX Aacute guilsinglleft -68
KPX Aacute hyphen -23
KPX Aacute o -23
KPX Aacute q -18
KPX Aacute quoteright -101
KPX Aacute u -18
KPX Aacute v -51
KPX Aacute w -56
KPX Aacute y -67
KPX Aacute Ccedilla -63
KPX Aacute Odieresis -53
KPX Aacute Uacute -61
KPX Aacute Ucircumflex -61
KPX Aacute Udieresis -61
KPX Aacute Ugrave -61
KPX Aacute ccedilla -29
KPX Aacute quotedblright -78
KPX Aacute Ccaron -61
KPX Aacute ccaron -20
KPX Aacute ecaron -25
KPX Aacute eacute -25
KPX Aacute Ocircumflex -53
KPX Aacute Oacute -53
KPX Aacute ocircumflex -23
KPX Aacute odieresis -23
KPX Aacute oacute -23
KPX Aacute Tcaron -33
KPX Aacute Uring -61
KPX Aacute udieresis -18
KPX Aacute uring -18
KPX Aacute uacute -18
KPX Aacute Yacute -44
KPX Aacute yacute -67

KPX Acircumflex C -61
KPX Acircumflex G -59
KPX Acircumflex O -53
KPX Acircumflex Q -54
KPX Acircumflex T -33
KPX Acircumflex U -61
KPX Acircumflex V -110
KPX Acircumflex W -107
KPX Acircumflex Y -44
KPX Acircumflex Ccaron -61
KPX Acircumflex Ocircumflex -53
KPX Acircumflex Odieresis -53
KPX Acircumflex Oacute -53
KPX Acircumflex Tcaron -33
KPX Acircumflex Udieresis -61
KPX Acircumflex Uring -61
KPX Acircumflex Uacute -61
KPX Acircumflex Yacute -44

KPX Adieresis C -61
KPX Adieresis G -59
KPX Adieresis O -53
KPX Adieresis Q -54
KPX Adieresis T -33
KPX Adieresis U -61
KPX Adieresis V -110
KPX Adieresis W -107
KPX Adieresis Y -44
KPX Adieresis c -20
KPX Adieresis g -20
KPX Adieresis guillemotleft -58
KPX Adieresis guilsinglleft -68
KPX Adieresis hyphen -23
KPX Adieresis o -23
KPX Adieresis q -18
KPX Adieresis quotedblright -78
KPX Adieresis quoteright -101
KPX Adieresis u -18
KPX Adieresis v -51
KPX Adieresis w -56
KPX Adieresis y -67
KPX Adieresis Ccedilla -63
KPX Adieresis Odieresis -53
KPX Adieresis Uacute -61
KPX Adieresis Ucircumflex -61
KPX Adieresis Udieresis -61
KPX Adieresis Ugrave -61
KPX Adieresis ccedilla -29
KPX Adieresis e -25
KPX Adieresis Ccaron -61
KPX Adieresis ccaron -20
KPX Adieresis ecaron -25
KPX Adieresis eacute -25
KPX Adieresis Ocircumflex -53
KPX Adieresis Oacute -53
KPX Adieresis ocircumflex -23
KPX Adieresis odieresis -23
KPX Adieresis oacute -23
KPX Adieresis Tcaron -33
KPX Adieresis Uring -61
KPX Adieresis udieresis -18
KPX Adieresis uring -18
KPX Adieresis uacute -18
KPX Adieresis Yacute -44
KPX Adieresis yacute -67

KPX Agrave C -61
KPX Agrave G -59
KPX Agrave O -53
KPX Agrave Q -54
KPX Agrave T -33
KPX Agrave U -61
KPX Agrave V -110
KPX Agrave W -107
KPX Agrave Y -44
KPX Agrave Ccaron -61
KPX Agrave Ocircumflex -53
KPX Agrave Odieresis -53
KPX Agrave Oacute -53
KPX Agrave Tcaron -33
KPX Agrave Udieresis -61
KPX Agrave Uring -61
KPX Agrave Uacute -61
KPX Agrave Yacute -44

KPX Aring C -61
KPX Aring G -59
KPX Aring O -53
KPX Aring Q -54
KPX Aring T -33
KPX Aring U -61
KPX Aring V -110
KPX Aring W -107
KPX Aring Y -44
KPX Aring c -20
KPX Aring e -25
KPX Aring g -20
KPX Aring guillemotleft -58
KPX Aring guilsinglleft -68
KPX Aring hyphen -23
KPX Aring o -23
KPX Aring q -18
KPX Aring quotedblright -78
KPX Aring quoteright -101
KPX Aring u -18
KPX Aring v -51
KPX Aring w -56
KPX Aring y -67
KPX Aring Ccaron -61
KPX Aring ccaron -20
KPX Aring ecaron -25
KPX Aring eacute -25
KPX Aring Ocircumflex -53
KPX Aring Odieresis -53
KPX Aring Oacute -53
KPX Aring ocircumflex -23
KPX Aring odieresis -23
KPX Aring oacute -23
KPX Aring Tcaron -33
KPX Aring Udieresis -61
KPX Aring Uring -61
KPX Aring Uacute -61
KPX Aring udieresis -18
KPX Aring uring -18
KPX Aring uacute -18
KPX Aring Yacute -44
KPX Aring yacute -67

KPX Atilde C -61
KPX Atilde G -59
KPX Atilde O -53
KPX Atilde Q -54
KPX Atilde T -33
KPX Atilde U -61
KPX Atilde V -110
KPX Atilde W -107
KPX Atilde Y -44
KPX Atilde Ccaron -61
KPX Atilde Ocircumflex -53
KPX Atilde Odieresis -53
KPX Atilde Oacute -53
KPX Atilde Tcaron -33
KPX Atilde Udieresis -61
KPX Atilde Uring -61
KPX Atilde Uacute -61
KPX Atilde Yacute -44

KPX B A -34
KPX B AE -40
KPX B Aacute -34
KPX B Acircumflex -34
KPX B Adieresis -34
KPX B Aring -34
KPX B Atilde -34
KPX B O -22
KPX B OE -20
KPX B Oacute -22
KPX B Ocircumflex -22
KPX B Odieresis -22
KPX B Ograve -22
KPX B Oslash -23
KPX B V -46
KPX B W -46
KPX B Y -50
KPX B Yacute -50

KPX C A -24
KPX C AE -31
KPX C Aacute -24
KPX C Adieresis -24
KPX C Aring -24
KPX C H -26
KPX C K -28
KPX C O -25
KPX C Oacute -25
KPX C Odieresis -25
KPX C Ocircumflex -25

KPX Ccedilla A -30
KPX Ccedilla Aacute -30
KPX Ccedilla Adieresis -30

KPX D A -54
KPX D Aacute -54
KPX D Acircumflex -54
KPX D Adieresis -54
KPX D Agrave -54
KPX D Aring -54
KPX D Atilde -54
KPX D J -67
KPX D T -27
KPX D V -60
KPX D W -58
KPX D X -64
KPX D Y -64
KPX D Tcaron -27
KPX D Yacute -64

KPX F A -101
KPX F Aacute -101
KPX F Acircumflex -101
KPX F Adieresis -101
KPX F Agrave -101
KPX F Aring -101
KPX F Atilde -101
KPX F J -88
KPX F O -48
KPX F Odieresis -48
KPX F a -75
KPX F aacute -75
KPX F adieresis -48
KPX F ae -83
KPX F aring -75
KPX F comma -96
KPX F e -86
KPX F eacute -86
KPX F hyphen -54
KPX F i -29
KPX F j -34
KPX F o -81
KPX F oacute -82
KPX F odieresis -45
KPX F oe -86
KPX F oslash -79
KPX F period -98
KPX F r -38
KPX F u -42
KPX F ecaron -86
KPX F iacute -29
KPX F Ocircumflex -48
KPX F Oacute -48
KPX F ocircumflex -81
KPX F racute -38
KPX F udieresis -42
KPX F uacute -42

KPX G A -14
KPX G AE -20
KPX G Aacute -14
KPX G Acircumflex -14
KPX G Adieresis -14
KPX G Agrave -14
KPX G Aring -14
KPX G Atilde -14
KPX G T -42
KPX G V -27
KPX G W -27
KPX G Y -31
KPX G Tcaron -42
KPX G Yacute -31

KPX J A -39
KPX J AE -42
KPX J Adieresis -39
KPX J Aring -39
KPX J Aacute -39

KPX K C -51
KPX K G -46
KPX K O -43
KPX K OE -42
KPX K Oacute -43
KPX K Odieresis -43
KPX K e -16
KPX K hyphen -30
KPX K o -13
KPX K oacute -13
KPX K odieresis -13
KPX K y -68
KPX K Ccaron -51
KPX K ecaron -16
KPX K eacute -16
KPX K Ocircumflex -43
KPX K ocircumflex -13
KPX K yacute -68

KPX L A 28
KPX L AE 25
KPX L Aacute 28
KPX L Adieresis 28
KPX L Aring 28
KPX L T -30
KPX L U -17
KPX L Udieresis -17
KPX L V -77
KPX L W -74
KPX L Y -41
KPX L hyphen 41
KPX L quotedblright -45
KPX L quoteright -67
KPX L y -23
KPX L Tcaron -30
KPX L Uring -17
KPX L Uacute -17
KPX L Yacute -41
KPX L yacute -23

KPX N A -39
KPX N AE -42
KPX N Aacute -39
KPX N Adieresis -39
KPX N Aring -39
KPX N C -32
KPX N Ccedilla -30
KPX N G -26
KPX N O -32
KPX N Oacute -32
KPX N Odieresis -32
KPX N a -25
KPX N aacute -27
KPX N adieresis -27
KPX N ae -34
KPX N aring -27
KPX N comma -24
KPX N e -37
KPX N eacute -38
KPX N o -32
KPX N oacute -34
KPX N odieresis -34
KPX N oslash -32
KPX N period -26
KPX N u -33
KPX N udieresis -33
KPX N Ccaron -32
KPX N ecaron -37
KPX N Ocircumflex -32
KPX N ocircumflex -32
KPX N uring -33
KPX N uacute -33

KPX O A -57
KPX O AE -67
KPX O Aacute -57
KPX O Adieresis -57
KPX O Aring -57
KPX O T -18
KPX O V -52
KPX O W -52
KPX O X -63
KPX O Y -56
KPX O Tcaron -18
KPX O Yacute -56

KPX Oacute A -57
KPX Oacute T -18
KPX Oacute V -52
KPX Oacute W -52
KPX Oacute Y -56
KPX Oacute Aacute -57
KPX Oacute Adieresis -57
KPX Oacute AE -67
KPX Oacute Aring -57
KPX Oacute X -63
KPX Oacute Tcaron -18
KPX Oacute Yacute -56

KPX Ocircumflex T -18
KPX Ocircumflex V -52
KPX Ocircumflex Y -56
KPX Ocircumflex A -57
KPX Ocircumflex AE -67
KPX Ocircumflex Aacute -57
KPX Ocircumflex Adieresis -57
KPX Ocircumflex Aring -57
KPX Ocircumflex W -52
KPX Ocircumflex X -63
KPX Ocircumflex Tcaron -18
KPX Ocircumflex Yacute -56

KPX Odieresis A -57
KPX Odieresis T -18
KPX Odieresis V -52
KPX Odieresis W -52
KPX Odieresis X -63
KPX Odieresis Y -56
KPX Odieresis Aacute -57
KPX Odieresis Adieresis -57
KPX Odieresis AE -67
KPX Odieresis Aring -57
KPX Odieresis Tcaron -18
KPX Odieresis Yacute -56

KPX Ograve T -18
KPX Ograve V -52
KPX Ograve Y -56
KPX Ograve Tcaron -18
KPX Ograve Yacute -56

KPX Oslash A -57
KPX Oslash Aacute -57
KPX Oslash Adieresis -57

KPX Otilde T -18
KPX Otilde V -52
KPX Otilde Y -56
KPX Otilde Tcaron -18
KPX Otilde Yacute -56

KPX P A -89
KPX P AE -104
KPX P Aacute -89
KPX P Adieresis -89
KPX P Aring -89
KPX P J -105
KPX P a -50
KPX P ae -58
KPX P aring -50
KPX P comma -107
KPX P e -57
KPX P hyphen -54
KPX P o -52
KPX P oacute -52
KPX P odieresis -35
KPX P oe -57
KPX P oslash -47
KPX P period -109
KPX P ocircumflex -52

KPX R C -33
KPX R Ccedilla -32
KPX R G -28
KPX R O -34
KPX R OE -32
KPX R Oacute -34
KPX R Odieresis -34
KPX R T -24
KPX R U -44
KPX R Udieresis -44
KPX R V -46
KPX R W -46
KPX R Y -40
KPX R e -21
KPX R eacute -21
KPX R hyphen -30
KPX R o -18
KPX R oacute -18
KPX R odieresis -18
KPX R oe -23
KPX R u -13
KPX R uacute -13
KPX R udieresis -13
KPX R y -12
KPX R Ccaron -33
KPX R ecaron -21
KPX R Ocircumflex -34
KPX R ocircumflex -18
KPX R Tcaron -24
KPX R Uring -44
KPX R Uacute -44
KPX R uring -13
KPX R Yacute -40
KPX R yacute -12

KPX S A -11
KPX S AE -17
KPX S Aacute -11
KPX S Adieresis -11
KPX S Aring -11
KPX S T -34
KPX S V -20
KPX S W -20
KPX S Y -24
KPX S Tcaron -34
KPX S Yacute -24

KPX T A -52
KPX T AE -54
KPX T Aacute -52
KPX T Acircumflex -52
KPX T Adieresis -52
KPX T Agrave -52
KPX T Aring -52
KPX T Atilde -52
KPX T C -15
KPX T J -63
KPX T O -22
KPX T OE -18
KPX T Oacute -22
KPX T Ocircumflex -22
KPX T Odieresis -22
KPX T Ograve -22
KPX T Oslash -22
KPX T Otilde -22
KPX T S -16
KPX T V 15
KPX T W 15
KPX T Y 11
KPX T a -83
KPX T ae -91
KPX T c -89
KPX T colon -98
KPX T comma -77
KPX T e -94
KPX T g -95
KPX T guillemotleft -110
KPX T guilsinglleft -120
KPX T hyphen -74
KPX T i -19
KPX T j -27
KPX T o -90
KPX T oslash -90
KPX T period -79
KPX T r -76
KPX T s -78
KPX T semicolon -98
KPX T u -91
KPX T v -89
KPX T w -89
KPX T y -86
KPX T Ccaron -15
KPX T ccaron -89
KPX T iacute -19
KPX T ocircumflex -90
KPX T odieresis -90
KPX T oacute -90
KPX T Scaron -16
KPX T udieresis -91
KPX T uacute -91
KPX T Yacute 11
KPX T yacute -86

KPX U A -65
KPX U AE -71
KPX U Aacute -65
KPX U Acircumflex -65
KPX U Adieresis -65
KPX U Aring -65
KPX U Atilde -65
KPX U comma -40
KPX U m -35
KPX U n -39
KPX U p -30
KPX U period -41
KPX U r -32
KPX U ncaron -39
KPX U rcaron -32
KPX U racute -32

KPX Uacute A -65
KPX Uacute comma -40
KPX Uacute m -35
KPX Uacute n -39
KPX Uacute p -30
KPX Uacute period -41
KPX Uacute r -32
KPX Uacute Aacute -65
KPX Uacute Adieresis -65
KPX Uacute ncaron -39
KPX Uacute rcaron -32
KPX Uacute racute -32
KPX Uacute AE -71
KPX Uacute Acircumflex -65
KPX Uacute Aring -65
KPX Uacute Atilde -65

KPX Ucircumflex A -65
KPX Ucircumflex Aacute -65
KPX Ucircumflex Adieresis -65

KPX Udieresis A -65
KPX Udieresis comma -40
KPX Udieresis m -35
KPX Udieresis n -39
KPX Udieresis p -30
KPX Udieresis period -41
KPX Udieresis r -32
KPX Udieresis Aacute -65
KPX Udieresis Adieresis -65
KPX Udieresis ncaron -39
KPX Udieresis rcaron -32
KPX Udieresis racute -32
KPX Udieresis AE -71
KPX Udieresis Acircumflex -65
KPX Udieresis Aring -65
KPX Udieresis Atilde -65

KPX Ugrave A -65
KPX Ugrave Aacute -65
KPX Ugrave Adieresis -65

KPX V A -100
KPX V AE -111
KPX V Aacute -100
KPX V Acircumflex -100
KPX V Adieresis -100
KPX V Agrave -100
KPX V Aring -100
KPX V Atilde -100
KPX V C -60
KPX V G -53
KPX V O -64
KPX V Oacute -64
KPX V Ocircumflex -64
KPX V Odieresis -64
KPX V Ograve -64
KPX V Oslash -64
KPX V Otilde -64
KPX V S -25
KPX V a -76
KPX V ae -84
KPX V colon -96
KPX V comma -96
KPX V e -87
KPX V g -83
KPX V guillemotleft -99
KPX V guilsinglleft -109
KPX V hyphen -62
KPX V i -12
KPX V o -83
KPX V oslash -81
KPX V period -97
KPX V r -44
KPX V semicolon -96
KPX V u -47
KPX V y -34
KPX V aacute -76
KPX V adieresis -76
KPX V Ccaron -60
KPX V eacute -87
KPX V iacute -12
KPX V ocircumflex -83
KPX V odieresis -83
KPX V oacute -83
KPX V racute -44
KPX V Scaron -25
KPX V udieresis -47
KPX V uacute -47
KPX V yacute -34

KPX W A -83
KPX W AE -87
KPX W Aacute -83
KPX W Acircumflex -83
KPX W Adieresis -83
KPX W Agrave -83
KPX W Aring -83
KPX W Atilde -83
KPX W C -46
KPX W G -41
KPX W O -47
KPX W Oacute -47
KPX W Ocircumflex -47
KPX W Odieresis -47
KPX W Ograve -47
KPX W Oslash -48
KPX W Otilde -47
KPX W S -24
KPX W a -51
KPX W ae -60
KPX W colon -78
KPX W comma -62
KPX W e -62
KPX W g -63
KPX W guillemotleft -74
KPX W guilsinglleft -84
KPX W hyphen -37
KPX W i -11
KPX W o -58
KPX W oslash -57
KPX W period -64
KPX W r -34
KPX W semicolon -79
KPX W u -38
KPX W y -25
KPX W aacute -51
KPX W adieresis -51
KPX W Ccaron -46
KPX W ecaron -62
KPX W eacute -62
KPX W iacute -11
KPX W ocircumflex -58
KPX W odieresis -58
KPX W oacute -58
KPX W rcaron -34
KPX W racute -34
KPX W Scaron -24
KPX W udieresis -38
KPX W uring -38
KPX W uacute -38
KPX W yacute -25

KPX X C -58
KPX X O -56
KPX X Odieresis -56
KPX X Q -58
KPX X e -29
KPX X hyphen -46
KPX X o -26
KPX X u -21
KPX X y -81
KPX X Ccaron -58
KPX X ecaron -29
KPX X eacute -29
KPX X Ocircumflex -56
KPX X Oacute -56
KPX X ocircumflex -26
KPX X odieresis -26
KPX X oacute -26
KPX X udieresis -21
KPX X uring -21
KPX X uacute -21
KPX X yacute -81

KPX Y A -45
KPX Y AE -47
KPX Y Aacute -45
KPX Y Acircumflex -45
KPX Y Adieresis -45
KPX Y Agrave -45
KPX Y Aring -45
KPX Y Atilde -45
KPX Y C -59
KPX Y G -54
KPX Y O -61
KPX Y Oacute -61
KPX Y Ocircumflex -61
KPX Y Odieresis -61
KPX Y Ograve -61
KPX Y Oslash -61
KPX Y Otilde -61
KPX Y S -25
KPX Y a -69
KPX Y ae -77
KPX Y colon -91
KPX Y comma -67
KPX Y e -80
KPX Y g -81
KPX Y guillemotleft -97
KPX Y guilsinglleft -107
KPX Y hyphen -63
KPX Y i -12
KPX Y o -76
KPX Y oslash -75
KPX Y p -54
KPX Y period -69
KPX Y semicolon -91
KPX Y u -59
KPX Y v -54
KPX Y aacute -69
KPX Y adieresis -69
KPX Y Ccaron -59
KPX Y ecaron -80
KPX Y eacute -80
KPX Y iacute -12
KPX Y ocircumflex -76
KPX Y odieresis -76
KPX Y oacute -76
KPX Y Scaron -25
KPX Y udieresis -59
KPX Y uring -59
KPX Y uacute -59

KPX Z v -29
KPX Z y -39
KPX Z yacute -39

KPX a quoteright -22

KPX b v -12
KPX b w -12
KPX b y -17
KPX b yacute -17

KPX c h -20
KPX c k -16

KPX comma one -26
KPX comma quoteright -23

KPX e quoteright -12
KPX e x -15

KPX eight one -52
KPX eight seven -13

KPX f a -23
KPX f aacute -24
KPX f adieresis 17
KPX f ae -32
KPX f aring -20
KPX f e -35
KPX f eacute -36
KPX f i 20
KPX f j 12
KPX f l 43
KPX f o -30
KPX f oacute -31
KPX f odieresis 20
KPX f oe -35
KPX f oslash -29
KPX f quoteright 12
KPX f s -14
KPX f ecaron -35
KPX f iacute 20
KPX f lcaron 43
KPX f lacute 43
KPX f ocircumflex -30
KPX f scaron -14

KPX five four -13
KPX five one -56
KPX five seven -37

KPX four one -50
KPX four seven -21

KPX g a -25
KPX g adieresis -25
KPX g ae -34
KPX g aring -25
KPX g e -32
KPX g eacute -32
KPX g l -21
KPX g oacute -27
KPX g odieresis -27
KPX g aacute -25
KPX g ecaron -32
KPX g lcaron -21
KPX g lacute -21

KPX guillemotright A -30
KPX guillemotright AE -39
KPX guillemotright Aacute -30
KPX guillemotright Adieresis -30
KPX guillemotright Aring -30
KPX guillemotright T -76
KPX guillemotright V -79
KPX guillemotright W -75
KPX guillemotright Y -83
KPX guillemotright Tcaron -76
KPX guillemotright Yacute -83

KPX guilsinglright A -40
KPX guilsinglright AE -49
KPX guilsinglright Aacute -40
KPX guilsinglright Adieresis -40
KPX guilsinglright Aring -40
KPX guilsinglright T -86
KPX guilsinglright V -89
KPX guilsinglright W -85
KPX guilsinglright Y -93
KPX guilsinglright Tcaron -86
KPX guilsinglright Yacute -93

KPX h quoteright -32
KPX h y -20
KPX h yacute -20

KPX hyphen A -13
KPX hyphen AE -22
KPX hyphen Aacute -13
KPX hyphen Adieresis -13
KPX hyphen Aring -13
KPX hyphen T -59
KPX hyphen V -62
KPX hyphen W -59
KPX hyphen Y -69
KPX hyphen Tcaron -59
KPX hyphen Yacute -69

KPX i T -20
KPX i Tcaron -20

KPX k a 10
KPX k aacute 10
KPX k adieresis 10
KPX k aring 10
KPX k comma 19
KPX k g -14
KPX k period 17

KPX l v -12

KPX m v -16
KPX m w -16
KPX m y -16
KPX m yacute -16

KPX n T -59
KPX n quoteright -32
KPX n v -20
KPX n w -20
KPX n y -20
KPX n Tcaron -59
KPX n yacute -20

KPX nine four -18
KPX nine one -67
KPX nine seven -12

KPX o T -75
KPX o quoteright -22
KPX o v -21
KPX o w -21
KPX o x -26
KPX o y -29
KPX o Tcaron -75
KPX o yacute -29

KPX oacute v -21
KPX oacute w -21
KPX oacute y -29
KPX oacute T -75
KPX oacute quoteright -22
KPX oacute x -26
KPX oacute Tcaron -75
KPX oacute yacute -29

KPX odieresis v -21
KPX odieresis w -21
KPX odieresis x -26
KPX odieresis y -29
KPX odieresis T -75
KPX odieresis quoteright -22
KPX odieresis Tcaron -75
KPX odieresis yacute -29

KPX ograve v -21
KPX ograve w -21
KPX ograve y -29
KPX ograve yacute -29

KPX one comma -38
KPX one eight -56
KPX one five -45
KPX one four -75
KPX one nine -40
KPX one one -48
KPX one period -39
KPX one seven -65
KPX one six -62
KPX one three -43
KPX one two -32
KPX one zero -48

KPX p y -13
KPX p yacute -13

KPX period one -32
KPX period quoteright -27

KPX quotedblbase A 24
KPX quotedblbase AE 19
KPX quotedblbase T -37
KPX quotedblbase V -79
KPX quotedblbase W -74
KPX quotedblbase Y -48
KPX quotedblbase Aacute 24
KPX quotedblbase Adieresis 24
KPX quotedblbase Tcaron -37
KPX quotedblbase Yacute -48

KPX quotedblleft A -76
KPX quotedblleft AE -98
KPX quotedblleft Aacute -76
KPX quotedblleft Adieresis -76
KPX quotedblleft Aring -76
KPX quotedblleft T -11
KPX quotedblleft Tcaron -11

KPX quotedblright A -72
KPX quotedblright AE -94
KPX quotedblright Aacute -72
KPX quotedblright Adieresis -72
KPX quotedblright Aring -72

KPX quoteleft A -83
KPX quoteleft AE -105
KPX quoteleft Aacute -83
KPX quoteleft Adieresis -83
KPX quoteleft Aring -83
KPX quoteleft T -18
KPX quoteleft Tcaron -18

KPX quoteright A -94
KPX quoteright AE -116
KPX quoteright Aacute -94
KPX quoteright Adieresis -94
KPX quoteright Aring -94
KPX quoteright comma -57
KPX quoteright d -50
KPX quoteright o -50
KPX quoteright period -59
KPX quoteright r -26
KPX quoteright s -26
KPX quoteright t -19
KPX quoteright v -23
KPX quoteright w -23
KPX quoteright y -18
KPX quoteright dcaron -50
KPX quoteright ocircumflex -50
KPX quoteright odieresis -50
KPX quoteright oacute -50
KPX quoteright rcaron -26
KPX quoteright racute -26
KPX quoteright scaron -26
KPX quoteright tcaron -19
KPX quoteright yacute -18

KPX r a -13
KPX r aacute -13
KPX r acircumflex -13
KPX r adieresis -13
KPX r ae -22
KPX r agrave -13
KPX r aring -13
KPX r c -15
KPX r colon -30
KPX r comma -67
KPX r d -14
KPX r e -20
KPX r eacute -20
KPX r ecircumflex -20
KPX r egrave -20
KPX r h -16
KPX r hyphen -13
KPX r i 17
KPX r j 12
KPX r k -11
KPX r l -12
KPX r m 10
KPX r o -15
KPX r oacute -15
KPX r ocircumflex -15
KPX r odieresis -15
KPX r oe -19
KPX r ograve -15
KPX r oslash -12
KPX r p 16
KPX r period -69
KPX r q -19
KPX r r 14
KPX r semicolon -30
KPX r t 12
KPX r u 11
KPX r v 20
KPX r w 20
KPX r y 20
KPX r z 10
KPX r ccaron -15
KPX r dcaron -14
KPX r ecaron -20
KPX r iacute 17
KPX r lcaron -12
KPX r lacute -12
KPX r rcaron 14
KPX r racute 14
KPX r tcaron 12
KPX r udieresis 11
KPX r uring 11
KPX r uacute 11
KPX r yacute 20
KPX r zcaron 10

KPX s quoteright -22

KPX seven colon -90
KPX seven comma -80
KPX seven eight -46
KPX seven five -60
KPX seven four -79
KPX seven one -43
KPX seven period -81
KPX seven seven -27
KPX seven six -60
KPX seven three -42
KPX seven two -30

KPX six one -52
KPX six seven -32

KPX t S -11
KPX t a 10
KPX t aacute 10
KPX t adieresis 10
KPX t aring 10
KPX t colon -22
KPX t quoteright -19
KPX t semicolon -23
KPX t Scaron -11

KPX three four -15
KPX three one -67
KPX three seven -27

KPX two one -48
KPX two seven -27

KPX u quoteright -33

KPX v a -20
KPX v aacute -20
KPX v acircumflex -20
KPX v adieresis -20
KPX v ae -28
KPX v agrave -20
KPX v aring -20
KPX v atilde -20
KPX v c -24
KPX v colon -51
KPX v comma -51
KPX v e -28
KPX v eacute -28
KPX v ecircumflex -28
KPX v egrave -28
KPX v g -20
KPX v l -24
KPX v o -24
KPX v oacute -24
KPX v odieresis -24
KPX v ograve -24
KPX v oslash -22
KPX v period -51
KPX v s -19
KPX v semicolon -51
KPX v ccaron -24
KPX v ecaron -28
KPX v lcaron -24
KPX v lacute -24
KPX v ocircumflex -24
KPX v scaron -19

KPX w a -24
KPX w aacute -24
KPX w acircumflex -24
KPX w adieresis -24
KPX w ae -32
KPX w agrave -24
KPX w aring -24
KPX w atilde -24
KPX w c -30
KPX w colon -56
KPX w comma -53
KPX w e -34
KPX w eacute -34
KPX w ecircumflex -34
KPX w egrave -34
KPX w g -26
KPX w l -28
KPX w o -30
KPX w oacute -30
KPX w odieresis -30
KPX w ograve -30
KPX w oslash -28
KPX w period -53
KPX w s -24
KPX w semicolon -56
KPX w ccaron -30
KPX w ecaron -34
KPX w lcaron -28
KPX w lacute -28
KPX w ocircumflex -30
KPX w scaron -24

KPX x c -10
KPX x e -14
KPX x eacute -14
KPX x o -11
KPX x q -12
KPX x ccaron -10
KPX x ecaron -14
KPX x ocircumflex -11
KPX x odieresis -11
KPX x oacute -11

KPX y a -11
KPX y aacute -12
KPX y acircumflex -12
KPX y adieresis -12
KPX y ae -19
KPX y agrave -12
KPX y aring -12
KPX y atilde -12
KPX y c -17
KPX y colon -43
KPX y comma -25
KPX y e -22
KPX y eacute -23
KPX y ecircumflex -23
KPX y egrave -23
KPX y g -23
KPX y l -16
KPX y o -17
KPX y oacute -19
KPX y odieresis -19
KPX y ograve -19
KPX y oslash -17
KPX y period -26
KPX y s -13
KPX y semicolon -44
KPX y ccaron -17
KPX y ecaron -22
KPX y lcaron -16
KPX y lacute -16
KPX y ocircumflex -17
KPX y scaron -13

KPX zero one -50
KPX zero seven -12

KPX aacute quoteright -22

KPX adieresis quoteright -22

KPX Ccaron A -24
KPX Ccaron AE -31
KPX Ccaron Aacute -24
KPX Ccaron Adieresis -24
KPX Ccaron Aring -24
KPX Ccaron H -26
KPX Ccaron K -28
KPX Ccaron O -25
KPX Ccaron Oacute -25
KPX Ccaron Odieresis -25
KPX Ccaron Ocircumflex -25

KPX ccaron h -20
KPX ccaron k -16

KPX Dcaron A -54
KPX Dcaron Aacute -54
KPX Dcaron Acircumflex -54
KPX Dcaron Adieresis -54
KPX Dcaron Agrave -54
KPX Dcaron Aring -54
KPX Dcaron Atilde -54
KPX Dcaron J -67
KPX Dcaron T -27
KPX Dcaron V -60
KPX Dcaron W -58
KPX Dcaron X -64
KPX Dcaron Y -64
KPX Dcaron Tcaron -27
KPX Dcaron Yacute -64

KPX dcaron a -84
KPX dcaron aacute -85
KPX dcaron adieresis -44
KPX dcaron ae -93
KPX dcaron aring -81
KPX dcaron e -96
KPX dcaron eacute -97
KPX dcaron i -41
KPX dcaron j -49
KPX dcaron l -18
KPX dcaron o -91
KPX dcaron oacute -92
KPX dcaron odieresis -41
KPX dcaron oe -96
KPX dcaron oslash -90
KPX dcaron quoteright -49
KPX dcaron s -75
KPX dcaron ecaron -96
KPX dcaron iacute -41
KPX dcaron lcaron -18
KPX dcaron lacute -18
KPX dcaron ocircumflex -91
KPX dcaron scaron -75

KPX ecaron quoteright -12
KPX ecaron x -15
KPX ecaron quotedblleft 204

KPX eacute quoteright -12
KPX eacute x -15
KPX eacute quotedblleft 204

KPX iacute T -20
KPX iacute Tcaron -20
KPX iacute quotedblleft 204

KPX Lcaron A 28
KPX Lcaron AE 25
KPX Lcaron Aacute 28
KPX Lcaron Adieresis 28
KPX Lcaron Aring 28
KPX Lcaron T -30
KPX Lcaron U -17
KPX Lcaron Udieresis -17
KPX Lcaron V -77
KPX Lcaron W -74
KPX Lcaron Y -41
KPX Lcaron hyphen 41
KPX Lcaron quotedblright -45
KPX Lcaron quoteright -67
KPX Lcaron y -23
KPX Lcaron Tcaron -30
KPX Lcaron Uring -17
KPX Lcaron Uacute -17
KPX Lcaron Yacute -41
KPX Lcaron yacute -23

KPX Lacute A 28
KPX Lacute AE 25
KPX Lacute Aacute 28
KPX Lacute Adieresis 28
KPX Lacute Aring 28
KPX Lacute T -30
KPX Lacute U -17
KPX Lacute Udieresis -17
KPX Lacute V -77
KPX Lacute W -74
KPX Lacute Y -41
KPX Lacute hyphen 41
KPX Lacute quotedblright -45
KPX Lacute quoteright -67
KPX Lacute y -23
KPX Lacute Tcaron -30
KPX Lacute Uring -17
KPX Lacute Uacute -17
KPX Lacute Yacute -41
KPX Lacute yacute -23

KPX lcaron a -84
KPX lcaron aacute -85
KPX lcaron adieresis -44
KPX lcaron ae -93
KPX lcaron aring -81
KPX lcaron e -96
KPX lcaron eacute -97
KPX lcaron i -41
KPX lcaron j -49
KPX lcaron l -18
KPX lcaron o -91
KPX lcaron oacute -92
KPX lcaron odieresis -41
KPX lcaron oe -96
KPX lcaron oslash -90
KPX lcaron quoteright -49
KPX lcaron s -75
KPX lcaron ecaron -96
KPX lcaron iacute -41
KPX lcaron lcaron -18
KPX lcaron lacute -18
KPX lcaron ocircumflex -91
KPX lcaron scaron -75

KPX lacute v -12

KPX Ncaron A -39
KPX Ncaron AE -42
KPX Ncaron Aacute -39
KPX Ncaron Adieresis -39
KPX Ncaron Aring -39
KPX Ncaron C -32
KPX Ncaron Ccedilla -30
KPX Ncaron G -26
KPX Ncaron O -32
KPX Ncaron Oacute -32
KPX Ncaron Odieresis -32
KPX Ncaron a -25
KPX Ncaron aacute -27
KPX Ncaron adieresis -27
KPX Ncaron ae -34
KPX Ncaron aring -27
KPX Ncaron comma -24
KPX Ncaron e -37
KPX Ncaron eacute -38
KPX Ncaron o -32
KPX Ncaron oacute -34
KPX Ncaron odieresis -34
KPX Ncaron oslash -32
KPX Ncaron period -26
KPX Ncaron u -33
KPX Ncaron udieresis -33
KPX Ncaron Ccaron -32
KPX Ncaron ecaron -37
KPX Ncaron Ocircumflex -32
KPX Ncaron ocircumflex -32
KPX Ncaron uring -33
KPX Ncaron uacute -33

KPX ncaron T -59
KPX ncaron quoteright -32
KPX ncaron v -20
KPX ncaron w -20
KPX ncaron y -20
KPX ncaron Tcaron -59
KPX ncaron yacute -20

KPX ocircumflex T -75
KPX ocircumflex quoteright -22
KPX ocircumflex v -21
KPX ocircumflex w -21
KPX ocircumflex x -26
KPX ocircumflex y -29
KPX ocircumflex Tcaron -75
KPX ocircumflex yacute -29

KPX Rcaron C -33
KPX Rcaron Ccedilla -32
KPX Rcaron G -28
KPX Rcaron O -34
KPX Rcaron OE -32
KPX Rcaron Oacute -34
KPX Rcaron Odieresis -34
KPX Rcaron T -24
KPX Rcaron U -44
KPX Rcaron Udieresis -44
KPX Rcaron V -46
KPX Rcaron W -46
KPX Rcaron Y -40
KPX Rcaron e -21
KPX Rcaron eacute -21
KPX Rcaron hyphen -30
KPX Rcaron o -18
KPX Rcaron oacute -18
KPX Rcaron odieresis -18
KPX Rcaron oe -23
KPX Rcaron u -13
KPX Rcaron uacute -13
KPX Rcaron udieresis -13
KPX Rcaron y -12
KPX Rcaron Ccaron -33
KPX Rcaron ecaron -21
KPX Rcaron Ocircumflex -34
KPX Rcaron ocircumflex -18
KPX Rcaron Tcaron -24
KPX Rcaron Uring -44
KPX Rcaron Uacute -44
KPX Rcaron uring -13
KPX Rcaron Yacute -40
KPX Rcaron yacute -12

KPX Racute C -33
KPX Racute Ccedilla -32
KPX Racute G -28
KPX Racute O -34
KPX Racute OE -32
KPX Racute Oacute -34
KPX Racute Odieresis -34
KPX Racute T -24
KPX Racute U -44
KPX Racute Udieresis -44
KPX Racute V -46
KPX Racute W -46
KPX Racute Y -40
KPX Racute e -21
KPX Racute eacute -21
KPX Racute hyphen -30
KPX Racute o -18
KPX Racute oacute -18
KPX Racute odieresis -18
KPX Racute oe -23
KPX Racute u -13
KPX Racute uacute -13
KPX Racute udieresis -13
KPX Racute y -12
KPX Racute Ccaron -33
KPX Racute ecaron -21
KPX Racute Ocircumflex -34
KPX Racute ocircumflex -18
KPX Racute Tcaron -24
KPX Racute Uring -44
KPX Racute Uacute -44
KPX Racute uring -13
KPX Racute Yacute -40
KPX Racute yacute -12

KPX rcaron a -13
KPX rcaron aacute -13
KPX rcaron acircumflex -13
KPX rcaron adieresis -13
KPX rcaron ae -22
KPX rcaron agrave -13
KPX rcaron aring -13
KPX rcaron c -15
KPX rcaron colon -30
KPX rcaron comma -67
KPX rcaron d -14
KPX rcaron e -20
KPX rcaron eacute -20
KPX rcaron ecircumflex -20
KPX rcaron egrave -20
KPX rcaron h -16
KPX rcaron hyphen -13
KPX rcaron i 17
KPX rcaron j 12
KPX rcaron k -11
KPX rcaron l -12
KPX rcaron m 10
KPX rcaron o -15
KPX rcaron oacute -15
KPX rcaron ocircumflex -15
KPX rcaron odieresis -15
KPX rcaron oe -19
KPX rcaron ograve -15
KPX rcaron oslash -12
KPX rcaron p 16
KPX rcaron period -69
KPX rcaron q -19
KPX rcaron r 14
KPX rcaron semicolon -30
KPX rcaron t 12
KPX rcaron u 11
KPX rcaron v 20
KPX rcaron w 20
KPX rcaron y 20
KPX rcaron z 10
KPX rcaron ccaron -15
KPX rcaron dcaron -14
KPX rcaron ecaron -20
KPX rcaron iacute 17
KPX rcaron lcaron -12
KPX rcaron lacute -12
KPX rcaron rcaron 14
KPX rcaron racute 14
KPX rcaron tcaron 12
KPX rcaron udieresis 11
KPX rcaron uring 11
KPX rcaron uacute 11
KPX rcaron yacute 20
KPX rcaron zcaron 10

KPX racute a -13
KPX racute aacute -13
KPX racute acircumflex -13
KPX racute adieresis -13
KPX racute ae -22
KPX racute agrave -13
KPX racute aring -13
KPX racute c -15
KPX racute colon -30
KPX racute comma -67
KPX racute d -14
KPX racute e -20
KPX racute eacute -20
KPX racute ecircumflex -20
KPX racute egrave -20
KPX racute h -16
KPX racute hyphen -13
KPX racute i 17
KPX racute j 12
KPX racute k -11
KPX racute l -12
KPX racute m 10
KPX racute o -15
KPX racute oacute -15
KPX racute ocircumflex -15
KPX racute odieresis -15
KPX racute oe -19
KPX racute ograve -15
KPX racute oslash -12
KPX racute p 16
KPX racute period -69
KPX racute q -19
KPX racute r 14
KPX racute semicolon -30
KPX racute t 12
KPX racute u 11
KPX racute v 20
KPX racute w 20
KPX racute y 20
KPX racute z 10
KPX racute ccaron -15
KPX racute dcaron -14
KPX racute ecaron -20
KPX racute iacute 17
KPX racute lcaron -12
KPX racute lacute -12
KPX racute rcaron 14
KPX racute racute 14
KPX racute tcaron 12
KPX racute udieresis 11
KPX racute uring 11
KPX racute uacute 11
KPX racute yacute 20
KPX racute zcaron 10

KPX Scaron A -11
KPX Scaron AE -17
KPX Scaron Aacute -11
KPX Scaron Adieresis -11
KPX Scaron Aring -11
KPX Scaron T -34
KPX Scaron V -20
KPX Scaron W -20
KPX Scaron Y -24
KPX Scaron Tcaron -34
KPX Scaron Yacute -24

KPX scaron quoteright -22

KPX Tcaron A -52
KPX Tcaron AE -54
KPX Tcaron Aacute -52
KPX Tcaron Acircumflex -52
KPX Tcaron Adieresis -52
KPX Tcaron Agrave -52
KPX Tcaron Aring -52
KPX Tcaron Atilde -52
KPX Tcaron C -15
KPX Tcaron J -63
KPX Tcaron O -22
KPX Tcaron OE -18
KPX Tcaron Oacute -22
KPX Tcaron Ocircumflex -22
KPX Tcaron Odieresis -22
KPX Tcaron Ograve -22
KPX Tcaron Oslash -22
KPX Tcaron Otilde -22
KPX Tcaron S -16
KPX Tcaron V 15
KPX Tcaron W 15
KPX Tcaron Y 11
KPX Tcaron a -83
KPX Tcaron ae -91
KPX Tcaron c -89
KPX Tcaron colon -98
KPX Tcaron comma -77
KPX Tcaron e -94
KPX Tcaron g -95
KPX Tcaron guillemotleft -110
KPX Tcaron guilsinglleft -120
KPX Tcaron hyphen -74
KPX Tcaron i -19
KPX Tcaron j -27
KPX Tcaron o -90
KPX Tcaron oslash -90
KPX Tcaron period -79
KPX Tcaron r -76
KPX Tcaron s -78
KPX Tcaron semicolon -98
KPX Tcaron u -91
KPX Tcaron v -89
KPX Tcaron w -89
KPX Tcaron y -86
KPX Tcaron Ccaron -15
KPX Tcaron ccaron -89
KPX Tcaron iacute -19
KPX Tcaron ocircumflex -90
KPX Tcaron odieresis -90
KPX Tcaron oacute -90
KPX Tcaron Scaron -16
KPX Tcaron udieresis -91
KPX Tcaron uring -91
KPX Tcaron uacute -91
KPX Tcaron Yacute 11
KPX Tcaron yacute -86

KPX tcaron a -84
KPX tcaron aacute -85
KPX tcaron adieresis -44
KPX tcaron ae -93
KPX tcaron aring -81
KPX tcaron e -96
KPX tcaron eacute -97
KPX tcaron i -41
KPX tcaron j -49
KPX tcaron l -18
KPX tcaron o -91
KPX tcaron oacute -92
KPX tcaron odieresis -41
KPX tcaron oe -96
KPX tcaron oslash -90
KPX tcaron quoteright -49
KPX tcaron s -75
KPX tcaron ecaron -96
KPX tcaron iacute -41
KPX tcaron lcaron -18
KPX tcaron lacute -18
KPX tcaron ocircumflex -91
KPX tcaron scaron -75

KPX Uring A -65
KPX Uring AE -71
KPX Uring Aacute -65
KPX Uring Acircumflex -65
KPX Uring Adieresis -65
KPX Uring Aring -65
KPX Uring Atilde -65
KPX Uring comma -40
KPX Uring m -35
KPX Uring n -39
KPX Uring p -30
KPX Uring period -41
KPX Uring r -32
KPX Uring ncaron -39
KPX Uring rcaron -32
KPX Uring racute -32

KPX udieresis quoteright -33

KPX uring quoteright -33

KPX uacute quoteright -33

KPX Yacute A -45
KPX Yacute AE -47
KPX Yacute Aacute -45
KPX Yacute Acircumflex -45
KPX Yacute Adieresis -45
KPX Yacute Agrave -45
KPX Yacute Aring -45
KPX Yacute Atilde -45
KPX Yacute C -59
KPX Yacute G -54
KPX Yacute O -61
KPX Yacute Oacute -61
KPX Yacute Ocircumflex -61
KPX Yacute Odieresis -61
KPX Yacute Ograve -61
KPX Yacute Oslash -61
KPX Yacute Otilde -61
KPX Yacute S -25
KPX Yacute a -69
KPX Yacute ae -77
KPX Yacute colon -91
KPX Yacute comma -67
KPX Yacute e -80
KPX Yacute g -81
KPX Yacute guillemotleft -97
KPX Yacute guilsinglleft -107
KPX Yacute hyphen -63
KPX Yacute i -12
KPX Yacute o -76
KPX Yacute oslash -75
KPX Yacute p -54
KPX Yacute period -69
KPX Yacute semicolon -91
KPX Yacute u -59
KPX Yacute v -54
KPX Yacute aacute -69
KPX Yacute adieresis -69
KPX Yacute Ccaron -59
KPX Yacute ecaron -80
KPX Yacute eacute -80
KPX Yacute iacute -12
KPX Yacute ocircumflex -76
KPX Yacute odieresis -76
KPX Yacute oacute -76
KPX Yacute Scaron -25
KPX Yacute udieresis -59
KPX Yacute uring -59
KPX Yacute uacute -59

KPX yacute a -11
KPX yacute aacute -12
KPX yacute acircumflex -12
KPX yacute adieresis -12
KPX yacute ae -19
KPX yacute agrave -12
KPX yacute aring -12
KPX yacute atilde -12
KPX yacute c -17
KPX yacute colon -43
KPX yacute comma -25
KPX yacute e -22
KPX yacute eacute -23
KPX yacute ecircumflex -23
KPX yacute egrave -23
KPX yacute g -23
KPX yacute l -16
KPX yacute o -17
KPX yacute oacute -19
KPX yacute odieresis -19
KPX yacute ograve -19
KPX yacute oslash -17
KPX yacute period -26
KPX yacute s -13
KPX yacute semicolon -44
KPX yacute ccaron -17
KPX yacute ecaron -22
KPX yacute lcaron -16
KPX yacute lacute -16
KPX yacute ocircumflex -17
KPX yacute scaron -13

KPX Zcaron v -29
KPX Zcaron y -39
KPX Zcaron yacute -39

EndKernPairs
EndKernData

EndFontMetrics
